{
	"IcoMoonType": "selection",
	"icons": [
		{
			"icon": {
				"paths": [
					"M51.2 543.846c90.778 103.578 225.126 290.816 303.002 428.954 179.763-337.51 367.104-611.328 567.398-851.558 0 0-59.75-70.042-59.75-70.042-162.509 172.134-372.838 454.246-515.277 684.237-68.352-91.904-141.926-172.595-227.994-263.578 0 0-67.379 71.987-67.379 71.987z"
				],
				"attrs": [
					{},
					{}
				],
				"isMulticolor": false,
				"width": 973,
				"grid": 0,
				"tags": [
					"check"
				]
			},
			"attrs": [
				{},
				{}
			],
			"properties": {
				"order": 23,
				"id": 2,
				"prevSize": 20,
				"code": 59648,
				"name": "check"
			},
			"setIdx": 0,
			"iconIdx": 0
		},
		{
			"icon": {
				"paths": [
					"M1350.78 399.267c0 0-562.207 198.656-562.207 198.656-11.854 4.686-25.259-1.241-29.975-13.219 0 0-18.928-48.19-18.928-48.19s-120.677-307.138-120.677-307.138c-4.717-11.978 1.086-25.476 12.909-30.161 0 0 562.207-198.656 562.207-198.656 11.854-4.686 25.259 1.21 29.975 13.188 0 0 139.605 355.359 139.605 355.359 4.717 11.978-1.055 25.476-12.909 30.161zM1188.802 66.715c0 0-159.713 63.147-159.713 63.147s35.126 89.336 35.126 89.336c0 0 159.682-63.147 159.682-63.147s-35.095-89.336-35.095-89.336zM706.001 614.4c0 0-189.44 0-189.44 0s-0.496 18.401-0.496 18.401c0 0 241.292 63.302 241.292 63.302s308.938-94.953 308.938-94.953c0 0 20.263 73.356 20.263 73.356s-5.089 20.635-5.089 20.635c0 0 5.089 48.904 5.089 48.904s-34.195 26.903-34.195 26.903c0 0 7.571 46.39 7.571 46.39s-253.642 126.014-253.642 126.014c0 0-456.176-54.334-456.176-54.334s-196.732 72.859-196.732 72.859c0 0 0 62.092 0 62.092s-153.072 0-153.072 0c0 0 0-394.954 0-394.954s153.072 0 153.072 0c0 0 0 43.132 0 43.132s16.818-4.872 16.818-4.872c0 0 155.027-193.505 155.027-193.505s342.419 52.41 342.419 52.41c0 0 38.353 88.219 38.353 88.219z"
				],
				"attrs": [
					{}
				],
				"isMulticolor": false,
				"width": 1365,
				"grid": 0,
				"tags": [
					"card-m"
				]
			},
			"attrs": [
				{}
			],
			"properties": {
				"order": 16,
				"id": 7,
				"prevSize": 20,
				"code": 59649,
				"name": "card-m"
			},
			"setIdx": 1,
			"iconIdx": 0
		},
		{
			"icon": {
				"paths": [
					"M963.243 592.744c0 0-54.613-60.871-54.613-60.871s60.644-54.803 60.644-54.803c0 0 54.575 60.871 54.575 60.871s-60.606 54.803-60.606 54.803zM831.109 351.004c0 0 60.644-54.803 60.644-54.803s54.575 60.871 54.575 60.871c0 0-60.606 54.803-60.606 54.803s-54.613-60.871-54.613-60.871zM753.626 170.136c0 0 60.644-54.803 60.644-54.803s54.613 60.871 54.613 60.871c0 0-60.644 54.803-60.644 54.803s-54.613-60.871-54.613-60.871zM647.813 37.623c0 0-119.049 106.61-119.049 106.61s-70.694-77.483-70.694-77.483c0 0-221.753 200.704-221.753 200.704s142.146 157.317 142.146 157.317c0 0-55.865 49.304-55.865 49.304s140.023 157.544 140.023 157.544c0 0-55.524 49.228-55.524 49.228s200.097 223.611 200.097 223.611c0 0 118.784-109.796 118.784-109.796s102.665 117.646 102.665 117.646c-20.404 15.967-42.667 30.948-67.167 44.828-74.259 42.515-160.085 66.863-251.411 66.863-280.917 0-509.99-230.021-509.99-512 0-282.017 229.073-512.038 509.99-512.038 80.062 0 155.876 18.735 223.422 51.959 10.619 5.044 21.201 10.619 31.82 16.763 0 0-46.952 42.174-46.952 42.174s-70.542-73.235-70.542-73.235zM796.369 680.581c0 0-81.882-91.288-81.882-91.288s90.946-82.223 90.946-82.223c0 0 81.92 91.326 81.92 91.326s-90.984 82.185-90.984 82.185zM809.529 405.428c0 0-90.908 82.185-90.908 82.185s-81.92-91.288-81.92-91.288c0 0 90.946-82.223 90.946-82.223s81.882 91.326 81.882 91.326zM725.713 221.791c0 0-90.946 82.261-90.946 82.261s-81.882-91.364-81.882-91.364c0 0 90.946-82.185 90.946-82.185s81.882 91.288 81.882 91.288zM451.622 162.095c0 0 109.151 121.742 109.151 121.742s-121.249 109.606-121.249 109.606c0 0-109.189-121.742-109.189-121.742s121.287-109.606 121.287-109.606zM733.829 702.161c0 0-121.287 109.644-121.287 109.644s-109.189-121.818-109.189-121.818c0 0 121.249-109.606 121.249-109.606s109.227 121.78 109.227 121.78zM538.359 369.967c0 0 109.227 121.78 109.227 121.78s-121.287 109.606-121.287 109.606c0 0-109.189-121.742-109.189-121.742s121.249-109.644 121.249-109.644zM885.419 691.503c0 0 81.882 91.288 81.882 91.288s-90.946 82.223-90.946 82.223c0 0-81.882-91.288-81.882-91.288s90.946-82.223 90.946-82.223z"
				],
				"attrs": [
					{}
				],
				"isMulticolor": false,
				"grid": 0,
				"tags": [
					"webmoney"
				]
			},
			"attrs": [
				{}
			],
			"properties": {
				"order": 17,
				"id": 6,
				"prevSize": 20,
				"code": 59650,
				"name": "webmoney"
			},
			"setIdx": 1,
			"iconIdx": 1
		},
		{
			"icon": {
				"paths": [
					"M799.744 341.431c0 0-52.809 0-52.809 0s0 329.582 0 329.582c0 59.063-25.307 93.257-100.242 110.482 0 0-478.939 135.497-478.939 135.497s-40.814 11.008-40.814-26.002c0-30.793 36.498-34.56 42.13-40.046 0 0-2.231 0.841-2.231 0.841s437.065-173.751 437.065-173.751c35.767-20.078 65.097-66.194 65.097-102.583 0 0 0-519.717 0-519.717 0-82.103-79.982-53.979-97.39-43.557-19.090 11.301-506.295 284.343-506.295 284.343-35.767 20.078-65.024 66.304-65.024 102.729 0 0 0 517.742 0 517.742 0 36.315 51.895 84.773 85.358 84.992 0 0 0 0.037 0 0.037s714.094 0 714.094 0c42.862 0.11 77.897-29.623 77.897-66.048 0 0 0-528.384 0-528.384 0-36.425-35.035-66.158-77.897-66.158zM454.4 301.861c33.682-22.418 65.719-15.141 71.534 16.201 5.778 31.415-13.678 71.314-47.433 93.733-33.609 22.382-65.719 15.177-71.497-16.238-5.742-31.342 13.678-71.278 47.397-93.696z"
				],
				"attrs": [
					{}
				],
				"isMulticolor": false,
				"width": 878,
				"grid": 0,
				"tags": [
					"y-money"
				]
			},
			"attrs": [
				{}
			],
			"properties": {
				"order": 18,
				"id": 5,
				"prevSize": 20,
				"code": 59651,
				"name": "y-money"
			},
			"setIdx": 1,
			"iconIdx": 2
		},
		{
			"icon": {
				"paths": [
					"M1395.898 53.341c0 0 0 885.248 0 885.248 0 29.836-23.878 53.993-53.295 53.993 0 0-1288.751 0-1288.751 0-29.417 0-53.248-24.157-53.248-53.993 0 0 0-120.087 0-120.087s0-765.161 0-765.161c0-29.836 23.831-53.993 53.248-53.993 0 0 1288.751 0 1288.751 0 29.417 0 53.295 24.157 53.295 53.993zM878.592 137.495c0 0 0 222.534 0 222.534s396.707 0 396.707 0c0 0 0-222.534 0-222.534s-396.707 0-396.707 0c0 0 0 0 0 0zM151.738 675.747c0 0 0 122.554 0 122.554s226.397 0 226.397 0c0 0 0-122.554 0-122.554s-226.397 0-226.397 0c0 0 0 0 0 0zM460.335 675.747c0 0 0 122.554 0 122.554s226.397 0 226.397 0c0 0 0-122.554 0-122.554s-226.397 0-226.397 0c0 0 0 0 0 0zM757.388 675.747c0 0 0 122.554 0 122.554s226.397 0 226.397 0c0 0 0-122.554 0-122.554s-226.397 0-226.397 0c0 0 0 0 0 0zM1046.807 675.747c0 0 0 122.554 0 122.554s226.211 0 226.211 0c0 0 0-122.554 0-122.554s-226.211 0-226.211 0z"
				],
				"attrs": [
					{}
				],
				"isMulticolor": false,
				"width": 1396,
				"grid": 0,
				"tags": [
					"card"
				]
			},
			"attrs": [
				{}
			],
			"properties": {
				"order": 19,
				"id": 4,
				"prevSize": 20,
				"code": 59652,
				"name": "card"
			},
			"setIdx": 1,
			"iconIdx": 3
		},
		{
			"icon": {
				"paths": [
					"M116.559 332.729c0 0 762.386 0 762.386 0 51.023 0 92.725 38.877 92.725 86.334 0 0 0 102.682 0 102.682s-382.234 0-382.234 0c-27.083 0-51.694 10.275-69.455 26.801-17.796 16.631-28.954 39.548-28.954 64.653 0 0 0 99.822 0 99.822 0 25.212 11.158 48.093 28.954 64.653 17.761 16.525 42.372 26.801 69.455 26.801 0 0 382.234 0 382.234 0s0 133.508 0 133.508c0 47.492-41.702 86.369-92.725 86.369 0 0-762.386 0-762.386 0-65.607 1.271-111.722-18.432-116.277-83.297 0 0 0-603.878 0-603.878-2.154-79.060 29.837-149.645 95.091-159.921 0 0 4.908-1.059 4.908-1.059s3.99 0 3.99 0c0 0 267.617 0 267.617 0s-191.77 80.543-191.77 80.543c0 0-71.292 0-71.292 0-17.549 10.699-25.988 73.516 7.733 75.988 0 0 0 0 0 0zM115.747 945.505c-7.062 0-12.853 5.402-12.853 11.97 0 0 0 0 0 0 0 6.568 5.791 11.97 12.853 11.97 0 0 75.529 0 75.529 0 7.062 0 12.747-5.402 12.747-11.97 0 0 0 0 0 0 0-6.568-5.685-11.97-12.747-11.97 0 0-75.529 0-75.529 0s0 0 0 0zM656.878 600.276c0 0 0 0 0 0 37.323 0 67.655 28.178 67.655 62.958 0 34.745-30.332 62.923-67.655 62.923-37.358 0-67.655-28.178-67.655-62.923 0-34.781 30.296-62.958 67.655-62.958zM115.747 409.106c-7.062 0-12.853 5.402-12.853 11.97 0 0 0 0 0 0 0 6.568 5.791 12.006 12.853 12.006 0 0 75.529 0 75.529 0 7.062 0 12.747-5.438 12.747-12.006 0 0 0 0 0 0 0-6.568-5.685-11.97-12.747-11.97 0 0-75.529 0-75.529 0s0 0 0 0zM810.372 409.106c-7.168 0-12.959 5.402-12.959 11.97 0 0 0 0 0 0 0 6.568 5.791 12.006 12.959 12.006 0 0 75.423 0 75.423 0 7.062 0 12.853-5.438 12.853-12.006 0 0 0 0 0 0 0-6.568-5.791-11.97-12.853-11.97 0 0-75.423 0-75.423 0s0 0 0 0zM672.344 409.106c-7.062 0-12.959 5.402-12.959 11.97 0 0 0 0 0 0 0 6.568 5.897 12.006 12.959 12.006 0 0 75.388 0 75.388 0 7.062 0 12.888-5.438 12.888-12.006 0 0 0 0 0 0 0-6.568-5.826-11.97-12.888-11.97 0 0-75.388 0-75.388 0s0 0 0 0zM538.871 409.106c-7.062 0-12.747 5.402-12.747 11.97 0 0 0 0 0 0 0 6.568 5.685 12.006 12.747 12.006 0 0 75.494 0 75.494 0 7.062 0 12.888-5.438 12.888-12.006 0 0 0 0 0 0 0-6.568-5.826-11.97-12.888-11.97 0 0-75.494 0-75.494 0s0 0 0 0zM400.949 409.106c-7.168 0-12.888 5.402-12.888 11.97 0 0 0 0 0 0 0 6.568 5.72 12.006 12.888 12.006 0 0 75.494 0 75.494 0 7.062 0 12.782-5.438 12.782-12.006 0 0 0 0 0 0 0-6.568-5.72-11.97-12.782-11.97 0 0-75.494 0-75.494 0s0 0 0 0zM253.775 409.106c-7.168 0-12.853 5.402-12.853 11.97 0 0 0 0 0 0 0 6.568 5.685 12.006 12.853 12.006 0 0 75.529 0 75.529 0 7.062 0 12.747-5.438 12.747-12.006 0 0 0 0 0 0 0-6.568-5.685-11.97-12.747-11.97 0 0-75.529 0-75.529 0s0 0 0 0zM93.678 466.344c0-6.568-5.826-12.006-12.888-12.006 0 0 0 0 0 0-7.062 0-12.853 5.438-12.853 12.006 0 0 0 70.126 0 70.126 0 6.568 5.791 11.97 12.853 11.97 0 0 0 0 0 0 7.062 0 12.888-5.402 12.888-11.97 0 0 0-70.126 0-70.126s0 0 0 0zM80.79 972.2c59.463 0-59.463 0 0 0 0 0 0 0 0 0zM93.678 859.983c0-6.568-5.826-11.97-12.888-11.97 0 0 0 0 0 0-7.062 0-12.853 5.402-12.853 11.97 0 0 0 70.268 0 70.268 0 6.568 5.791 11.864 12.853 11.864 0 0 0 0 0 0 7.062 0 12.888-5.297 12.888-11.864 0 0 0-70.268 0-70.268s0 0 0 0zM93.678 731.666c0-6.568-5.826-12.076-12.888-12.076 0 0 0 0 0 0-7.062 0-12.853 5.508-12.853 12.076 0 0 0 70.162 0 70.162 0 6.568 5.791 11.97 12.853 11.97 0 0 0 0 0 0 7.062 0 12.888-5.402 12.888-11.97 0 0 0-70.162 0-70.162s0 0 0 0zM93.678 594.662c0-6.462-5.826-11.97-12.888-11.97 0 0 0 0 0 0-7.062 0-12.853 5.508-12.853 11.97 0 0 0 70.268 0 70.268 0 6.568 5.791 11.864 12.853 11.864 0 0 0 0 0 0 7.062 0 12.888-5.297 12.888-11.864 0 0 0-70.268 0-70.268s0 0 0 0zM810.372 945.505c-7.168 0-12.959 5.402-12.959 11.97 0 0 0 0 0 0 0 6.568 5.791 11.97 12.959 11.97 0 0 75.423 0 75.423 0 7.062 0 12.853-5.402 12.853-11.97 0 0 0 0 0 0 0-6.568-5.791-11.97-12.853-11.97 0 0-75.423 0-75.423 0s0 0 0 0zM672.344 945.505c-7.062 0-12.959 5.402-12.959 11.97 0 0 0 0 0 0 0 6.568 5.897 11.97 12.959 11.97 0 0 75.388 0 75.388 0 7.062 0 12.888-5.402 12.888-11.97 0 0 0 0 0 0 0-6.568-5.826-11.97-12.888-11.97 0 0-75.388 0-75.388 0s0 0 0 0zM538.871 945.505c-7.062 0-12.747 5.402-12.747 11.97 0 0 0 0 0 0 0 6.568 5.685 11.97 12.747 11.97 0 0 75.494 0 75.494 0 7.062 0 12.888-5.402 12.888-11.97 0 0 0 0 0 0 0-6.568-5.826-11.97-12.888-11.97 0 0-75.494 0-75.494 0s0 0 0 0zM400.949 945.505c-7.168 0-12.888 5.402-12.888 11.97 0 0 0 0 0 0 0 6.568 5.72 11.97 12.888 11.97 0 0 75.494 0 75.494 0 7.062 0 12.782-5.402 12.782-11.97 0 0 0 0 0 0 0-6.568-5.72-11.97-12.782-11.97 0 0-75.494 0-75.494 0s0 0 0 0zM253.775 945.505c-7.168 0-12.853 5.402-12.853 11.97 0 0 0 0 0 0 0 6.568 5.685 11.97 12.853 11.97 0 0 75.529 0 75.529 0 7.062 0 12.747-5.402 12.747-11.97 0 0 0 0 0 0 0-6.568-5.685-11.97-12.747-11.97 0 0-75.529 0-75.529 0s0 0 0 0zM117.478 305.046c0 0 148.515 2.648 148.515 2.648s607.62-230.259 607.62-230.259c0 0 173.692 365.144 173.692 365.144s-45.586 22.669-45.586 22.669c0 0 0.812 68.467 0.812 68.467s127.682-65.677 127.682-65.677c0 0-210.026-441.591-210.026-441.591s-12.888-26.801-12.888-26.801c0 0-29.025 11.017-29.025 11.017s-760.797 294.382-760.797 294.382c0 0 0 0 0 0zM999.918 561.929c0 0-28.248 0-28.248 0s-382.234 0-382.234 0c-15.042 0-28.919 5.826-38.947 15.148-9.922 9.322-16.172 22.14-16.172 36.122 0 0 0 99.822 0 99.822 0 13.983 6.25 26.906 16.172 36.228 10.028 9.322 23.905 15.078 38.947 15.078 0 0 382.234 0 382.234 0s28.248 0 28.248 0c0 0 0-202.399 0-202.399z"
				],
				"attrs": [
					{}
				],
				"isMulticolor": false,
				"width": 1130,
				"grid": 0,
				"tags": [
					"wallet"
				]
			},
			"attrs": [
				{}
			],
			"properties": {
				"order": 20,
				"id": 3,
				"prevSize": 20,
				"code": 59653,
				"name": "wallet"
			},
			"setIdx": 1,
			"iconIdx": 4
		},
		{
			"icon": {
				"paths": [
					"M43.249-0.663c0 0 754.387 0 754.387 0s44.152 0 44.152 0c0 0 0 42.767 0 42.767s0 938.044 0 938.044c0 0 0 42.767 0 42.767s-44.152 0-44.152 0c0 0-532.36 0-532.36 0s-14.396 0-14.396 0c0 0-11.806-8.433-11.806-8.433s-221.967-160.226-221.967-160.226c0 0-17.89-12.83-17.89-12.83s0-21.323 0-21.323c0 0 0-777.999 0-777.999s0-42.767 0-42.767c0 0 44.032 0 44.032 0s0 0 0 0zM87.462 776.493c0 0 134.445-48.008 134.445-48.008s18.974-6.807 18.974-6.807c0 0 5.662 18.974 5.662 18.974s57.946 196.728 57.946 196.728c0 0 448.934 0 448.934 0s0-852.39 0-852.39c0 0-665.961 0-665.961 0s0 691.501 0 691.501c0 0 0 0 0 0zM261.301 924.13c0 0-45.538-154.383-45.538-154.383s-112.7 40.237-112.7 40.237c0 0 158.238 114.146 158.238 114.146s0 0 0 0zM198.536 550.189c0 0 0 35.479 0 35.479s450.56 0 450.56 0c0 0 0-35.479 0-35.479s-450.56 0-450.56 0c0 0 0 0 0 0zM198.536 443.392c0 0 0 35.599 0 35.599s450.56 0 450.56 0c0 0 0-35.599 0-35.599s-450.56 0-450.56 0c0 0 0 0 0 0zM198.536 326.897c0 0 0 35.659 0 35.659s450.56 0 450.56 0c0 0 0-35.659 0-35.659s-450.56 0-450.56 0c0 0 0 0 0 0zM198.536 220.22c0 0 0 35.539 0 35.539s450.56 0 450.56 0c0 0 0-35.539 0-35.539s-450.56 0-450.56 0z"
				],
				"attrs": [
					{}
				],
				"isMulticolor": false,
				"width": 843,
				"grid": 0,
				"tags": [
					"list"
				]
			},
			"attrs": [
				{}
			],
			"properties": {
				"order": 21,
				"id": 1,
				"prevSize": 20,
				"code": 59654,
				"name": "list"
			},
			"setIdx": 1,
			"iconIdx": 6
		},
		{
			"icon": {
				"paths": [
					"M659.752 914.378c0 0-15.603-67.746-15.603-67.746 47.751-22.043 12.827-135.707 81.92-213.342 0 0-82.405 0-82.405 0-59.284 27.917-66.883 100.406-148.615 98.358-64.916-1.617-141.501-30.37-269.932-98.358 0 0-112.29 0-112.29 0 83.025 72.111 215.902 135.869 298.927 208.95 0 0 50.014 72.138 50.014 72.138s-55.107 0-55.107 0c0 0 0 109.406 0 109.406s326.521 0 326.521 0c0 0 0-109.406 0-109.406s-73.432 0-73.432 0c0 0 0 0 0 0zM389.228-0.269c0 0 104.933 0 104.933 0s0 117.517 0 117.517c173.191 26.193 308.574 173.972 323.934 357.592 0 0-552.125 0-552.125 0-4.177-97.9 29.534-190.41 84.184-279.956-122.072 60.793-198.171 152.064-219.082 279.956 0 0-70.925 0-70.925 0 15.495-185.452 153.411-334.309 329.081-358.292 0 0 0-116.817 0-116.817s0 0 0 0zM-0.081 523.075c0 0 889.236 0 889.236 0s0 82.055 0 82.055c0 0-889.236 0-889.236 0s0-82.055 0-82.055z"
				],
				"attrs": [
					{}
				],
				"isMulticolor": false,
				"width": 889,
				"grid": 0,
				"tags": [
					"food"
				]
			},
			"attrs": [
				{}
			],
			"properties": {
				"order": 22,
				"id": 0,
				"prevSize": 20,
				"code": 59655,
				"name": "food"
			},
			"setIdx": 1,
			"iconIdx": 7
		},
		{
			"icon": {
				"paths": [
					"M501.009 679.799c8.465 21.914 15.906 41.984 24.098 61.713 1.229 2.867 5.939 5.12 9.489 6.007 3.959 1.092 8.465 0.273 12.766 0.273 166.639 0 333.346 0 499.985 0 79.94 0.068 144.93 63.693 142.541 139.401-2.458 80.418-67.789 139.264-150.801 135.851-75.435-3.072-135.305-70.383-130.594-147.251 0.683-10.854 3.345-21.504 5.188-33.314-94.754 0-189.030 0-285.013 0 11.674 47.241 6.144 90.453-24.576 128.614-21.026 26.078-48.265 42.394-81.237 49.63-64.649 13.995-132.233-20.412-158.447-81.442-23.552-54.613-13.312-130.731 64.375-177.22-1.57-4.847-2.867-10.24-4.915-15.36-82.398-211.9-164.932-423.731-246.989-635.699-4.779-12.425-10.991-16.521-24.235-16.179-35.226 0.887-70.519 0.887-105.745 0-25.941-0.683-43.827-17.476-46.626-41.301-2.799-23.211 11.127-44.783 33.724-50.586 8.124-2.116 16.93-2.526 25.395-2.526 44.373-0.273 88.678-0.273 133.052-0.068 34.543 0.137 47.445 9.216 59.87 41.028 14.473 37.205 29.696 74.138 43.145 111.684 4.71 13.38 11.537 16.657 25.327 16.657 306.108-0.41 612.215-0.341 918.323-0.341 47.172 0 67.584 26.624 53.658 70.656-42.052 133.052-84.309 266.035-126.566 399.087-9.626 30.31-23.893 40.619-56.183 40.619-196.062 0.068-392.124 0.068-588.186 0.068-6.212 0-12.425 0-20.821 0zM619.11 407.825c-3.959-49.22-7.782-96.461-11.605-143.565-90.317 0-178.108 0-267.332 0 1.57 4.983 2.526 8.943 3.959 12.698 15.36 39.663 31.061 79.189 45.807 118.989 3.755 10.103 9.079 13.107 19.866 13.039 64.58-0.546 129.161-0.273 193.741-0.273 4.71 0 9.353-0.546 15.565-0.887zM1138.688 407.962c15.155-47.855 30.174-95.232 45.466-143.497-83.831 0-166.229 0-249.583 0-3.823 48.128-7.509 95.369-11.332 143.497 72.772 0 143.087 0 215.45 0zM874.837 408.166c3.891-48.879 7.646-96.051 11.401-143.36-77.961 0-153.873 0-230.195 0 3.959 48.538 7.714 95.846 11.605 143.36 69.905 0 137.557 0 207.189 0zM622.933 457.387c-70.315 0-138.65 0-208.623 0 10.035 25.941 19.456 50.313 29.013 74.684 6.758 17.135 9.011 40.892 21.777 49.357 13.38 8.875 36.864 3.413 55.91 3.55 36.727 0.273 73.455 0.137 112.094 0.137-3.482-43.349-6.758-84.924-10.172-127.727zM1123.191 457.182c-69.018 0-135.987 0-203.913 0-3.413 42.53-6.758 84.105-10.035 125.338 1.57 0.956 2.526 1.911 3.413 1.911 54.34 0.273 108.749 0.546 163.157 0.273 3.072-0.068 7.919-4.71 9.079-8.055 12.971-39.253 25.327-78.643 38.298-119.467zM671.403 457.114c3.482 42.94 6.827 84.924 10.172 126.771 60.757 0 119.535 0 179.2 0 3.345-42.735 6.622-84.241 10.035-126.771-67.584 0-132.915 0-199.407 0zM1049.122 842.274c-25.19-0.068-44.646 18.842-44.51 43.349 0.068 24.439 19.866 43.622 44.715 43.349 23.893-0.205 43.622-19.319 44.169-42.803 0.614-23.62-19.797-43.759-44.373-43.895zM494.251 928.905c23.962-0.137 44.032-19.593 44.373-43.008 0.341-23.825-20.275-43.895-45.056-43.759-24.371 0.137-43.691 19.046-43.895 42.871-0.205 24.576 19.593 44.032 44.578 43.895z"
				],
				"attrs": [
					{}
				],
				"isMulticolor": false,
				"width": 1297,
				"grid": 0,
				"tags": [
					"basket"
				]
			},
			"attrs": [
				{}
			],
			"properties": {
				"order": 15,
				"id": 0,
				"prevSize": 20,
				"code": 59656,
				"name": "basket"
			},
			"setIdx": 2,
			"iconIdx": 0
		},
		{
			"icon": {
				"paths": [
					"M556.928 497.728c12.288 12.288 28.8 20.16 47.552 20.16 18.432 0 35.008-7.872 47.552-20.16 11.776-12.032 19.648-29.12 19.648-47.040 0-18.752-7.872-35.84-19.648-47.616 0 0-0.576 0-0.576 0-11.968-12.352-29.056-19.584-46.976-19.584-18.752 0-35.264 7.232-47.552 19.584 0 0 0 0 0 0-12.352 11.776-19.648 28.864-19.648 47.616 0 17.92 7.296 35.008 19.648 47.040 0 0 0 0 0 0s0 0 0 0zM590.464 436.672c0 0 0 0 0 0 3.072-4.224 8.128-6.144 14.016-6.144 5.568 0 10.368 1.92 13.952 6.144 3.136 3.072 5.632 8.128 5.632 14.016 0 5.568-2.496 10.048-5.632 13.952-3.584 3.136-8.384 5.632-13.952 5.632-5.888 0-10.944-2.496-14.016-5.632-3.904-3.904-5.568-8.384-5.568-13.952 0-5.888 1.664-10.944 5.568-14.016 0 0 0 0 0 0zM374.976 497.728c0 0 0 0 0 0 12.288 12.288 28.8 20.16 47.552 20.16 18.496 0 35.008-7.872 47.616-20.16 11.776-12.032 19.584-29.12 19.584-47.040 0-18.752-7.808-35.84-19.584-47.616 0 0-0.576 0-0.576 0-12.352-12.352-28.544-19.584-47.040-19.584-18.752 0-35.264 7.232-47.552 19.584-12.352 11.776-19.584 28.864-19.584 47.616 0 17.92 7.232 35.008 19.584 47.040 0 0 0 0 0 0zM408 436.672c0 0 0 0 0 0 3.648-4.224 8.96-6.144 14.528-6.144 5.056 0 10.368 1.92 13.44 6.144 0 0 0.576 0 0.576 0 3.072 3.072 5.568 8.128 5.568 14.016 0 5.568-2.496 10.048-6.144 13.952-3.648 3.136-8.384 5.632-13.44 5.632-5.568 0-10.88-2.496-14.528-5.632-3.392-3.904-5.632-8.384-5.632-13.952 0-5.888 2.24-10.944 5.632-14.016 0 0 0 0 0 0zM986.816-0.064c0 0 0 0 0 0s-946.624 0-946.624 0c-21.76 0-39.424 17.024-39.424 38.592 0 0 0 946.944 0 946.944 0 21.824 17.664 39.488 39.424 39.488 0 0 946.624 0 946.624 0 21.248 0 39.168-17.664 39.168-39.488 0 0 0-946.944 0-946.944 0-21.568-17.92-38.592-39.168-38.592 0 0 0 0 0 0zM947.072 945.664c0 0 0 0 0 0s-867.136 0-867.136 0c0 0 0-637.248 0-637.248s867.136 0 867.136 0c0 0 0 637.248 0 637.248s0 0 0 0zM947.072 261.44c0 0 0 0 0 0s-867.136 0-867.136 0c0 0 0-183.168 0-183.168s76.992 0 76.992 0c0 0 0 58.816 0 58.816 0 21.824 18.176 39.488 39.744 39.488 21.312 0 39.232-17.664 39.232-39.488 0 0 0-58.816 0-58.816s132.352 0 132.352 0c0 0 0 58.816 0 58.816 0 21.824 17.6 39.488 39.168 39.488 22.4 0 39.488-17.664 39.488-39.488 0 0 0-58.816 0-58.816s132.352 0 132.352 0c0 0 0 58.816 0 58.816 0 21.824 17.92 39.488 39.488 39.488 21.824 0 39.488-17.664 39.488-39.488 0 0 0-58.816 0-58.816s132.672 0 132.672 0c0 0 0 58.816 0 58.816 0 21.824 17.024 39.488 38.848 39.488 22.144 0 39.488-17.664 39.488-39.488 0 0 0-58.816 0-58.816s77.824 0 77.824 0c0 0 0 183.168 0 183.168s0 0 0 0zM738.816 497.728c0 0 0 0 0 0 12.288 12.288 28.8 20.16 47.616 20.16 18.432 0 34.944-7.872 47.296-20.16 12.032-12.032 19.84-29.12 19.84-47.040 0-18.752-7.808-35.84-19.84-47.616 0 0-0.32 0-0.32 0-12.032-12.352-28.544-19.584-46.976-19.584-18.816 0-35.328 7.232-47.616 19.584-12.032 11.776-19.584 28.864-19.584 47.616 0 17.92 7.552 35.008 19.584 47.040 0 0 0 0 0 0zM772.416 436.672c0 0 0 0 0 0 3.072-4.224 8.064-6.144 14.016-6.144 5.568 0 10.048 1.92 13.696 6.144 3.648 3.072 5.888 8.128 5.888 14.016 0 5.568-2.24 10.048-5.888 13.952-3.648 3.136-8.128 5.632-13.696 5.632-5.952 0-10.944-2.496-14.016-5.632-4.224-3.904-6.208-8.384-6.208-13.952 0-5.888 1.984-10.944 6.208-14.016 0 0 0 0 0 0zM738.816 676.352c0 0 0 0 0 0 12.288 12.032 28.8 19.904 47.616 19.904 18.432 0 34.944-7.872 46.976-19.904 0 0 0.32-0.256 0.32-0.256 12.032-11.52 19.84-28.608 19.84-47.040 0-18.24-7.808-35.328-19.84-47.616 0 0-0.32 0-0.32 0-12.032-12.608-28.544-19.584-46.976-19.584-18.816 0-35.328 6.976-47.616 19.584-12.032 12.288-19.584 29.376-19.584 47.616 0 18.432 7.552 35.52 19.584 47.040 0 0 0 0.256 0 0.256s0 0 0 0zM772.416 615.040c0 0 0 0 0 0 3.072-3.648 8.064-6.144 14.016-6.144 5.568 0 10.048 2.496 13.696 6.144s5.888 8.128 5.888 14.016c0 5.568-2.24 10.304-5.888 13.696-3.648 3.648-8.128 5.888-13.696 5.888-5.952 0-10.944-2.24-14.016-5.888-4.224-3.392-6.208-8.128-6.208-13.696 0-5.888 1.984-10.368 6.208-14.016 0 0 0 0 0 0zM374.976 854.976c0 0 0 0 0 0 12.288 12.288 28.8 19.904 47.552 19.904 18.496 0 34.688-7.616 47.040-19.904 0 0 0.576 0 0.576 0 11.776-12.032 19.584-29.12 19.584-47.296 0-18.496-7.808-35.008-19.584-47.36 0 0-0.576 0-0.576 0-12.352-12.544-28.544-19.84-47.040-19.84-18.752 0-35.264 7.296-47.552 19.84 0 0 0 0 0 0-12.352 12.352-19.584 28.864-19.584 47.36 0 18.176 7.232 35.264 19.584 47.296 0 0 0 0 0 0zM408 793.92c0 0 0 0 0 0 3.648-3.904 8.96-6.464 14.528-6.464 5.056 0 10.368 2.56 13.44 6.464 0 0 0.576 0 0.576 0 3.072 3.072 5.568 8.128 5.568 13.76 0 5.824-2.496 10.368-5.568 13.952 0 0-0.576 0-0.576 0-3.072 3.072-8.384 5.888-13.44 5.888-5.568 0-10.88-2.816-14.528-5.888-3.392-3.584-5.632-8.128-5.632-13.952 0-5.632 2.24-10.688 5.632-13.76 0 0 0 0 0 0zM193.024 676.352c0 0 0 0 0 0 12.032 12.032 29.12 19.904 47.616 19.904 18.176 0 34.688-7.872 46.976-19.904 0 0 0-0.256 0-0.256 12.352-11.52 20.16-28.608 20.16-47.040 0-18.24-7.808-35.328-20.16-47.616 0 0 0 0 0 0-12.288-12.608-28.8-19.584-46.976-19.584-18.496 0-35.584 6.976-47.616 19.584-12.288 12.288-20.16 29.376-20.16 47.616 0 18.432 7.872 35.52 20.16 47.040 0 0 0 0.256 0 0.256s0 0 0 0zM226.048 615.040c0 0 0 0 0 0s0.576 0 0.576 0c3.072-3.648 8.384-6.144 14.016-6.144 4.992 0 9.792 2.496 13.952 6.144 3.072 3.648 5.632 8.128 5.632 14.016 0 5.568-2.56 10.304-5.632 13.696-4.16 3.648-8.96 5.888-13.952 5.888-5.632 0-10.944-2.24-14.016-5.888 0 0-0.576 0-0.576 0-3.584-3.392-5.568-8.128-5.568-13.696 0-5.888 1.984-10.368 5.568-14.016 0 0 0 0 0 0zM193.024 854.976c0 0 0 0 0 0 12.032 12.288 29.12 19.904 47.616 19.904 18.176 0 34.688-7.616 46.976-19.904 0 0 0 0 0 0 12.352-12.032 20.16-29.12 20.16-47.296 0-18.496-7.808-35.008-20.16-47.36 0 0 0 0 0 0-12.288-12.544-28.8-19.84-46.976-19.84-18.496 0-35.584 7.296-47.616 19.84 0 0 0 0 0 0-12.288 12.352-20.16 28.864-20.16 47.36 0 18.176 7.872 35.264 20.16 47.296 0 0 0 0 0 0zM226.048 793.92c0 0 0 0 0 0s0.576 0 0.576 0c3.072-3.904 8.384-6.464 14.016-6.464 4.992 0 9.792 2.56 13.952 6.464 3.072 3.072 5.632 8.128 5.632 13.76 0 5.824-2.56 10.368-5.632 13.952-4.16 3.072-8.96 5.888-13.952 5.888-5.632 0-10.944-2.816-14.016-5.888 0 0-0.576 0-0.576 0-3.584-3.584-5.568-8.128-5.568-13.952 0-5.632 1.984-10.688 5.568-13.76 0 0 0 0 0 0zM556.928 676.352c0 0 0 0 0 0 12.288 12.032 28.8 19.904 47.552 19.904 17.92 0 35.008-7.872 46.976-19.904 0 0 0.576-0.256 0.576-0.256 11.776-11.52 19.648-28.608 19.648-47.040 0-18.24-7.872-35.328-19.648-47.616 0 0-0.576 0-0.576 0-11.968-12.608-29.056-19.584-46.976-19.584-18.752 0-35.264 6.976-47.552 19.584 0 0 0 0 0 0-12.352 12.288-19.648 29.376-19.648 47.616 0 18.432 7.296 35.52 19.648 47.040 0 0 0 0.256 0 0.256s0 0 0 0zM590.464 615.040c0 0 0 0 0 0 3.072-3.648 8.128-6.144 14.016-6.144 5.568 0 10.368 2.496 13.952 6.144 3.136 3.648 5.632 8.128 5.632 14.016 0 5.568-2.496 10.304-5.632 13.696-3.584 3.648-8.384 5.888-13.952 5.888-5.888 0-10.944-2.24-14.016-5.888-3.904-3.392-5.568-8.128-5.568-13.696 0-5.888 1.664-10.368 5.568-14.016 0 0 0 0 0 0zM556.928 854.976c0 0 0 0 0 0 12.288 12.288 28.8 19.904 47.552 19.904 17.92 0 35.008-7.616 46.976-19.904 0 0 0.576 0 0.576 0 11.776-12.032 19.648-29.12 19.648-47.296 0-18.496-7.872-35.008-19.648-47.36 0 0-0.576 0-0.576 0-11.968-12.544-29.056-19.84-46.976-19.84-18.752 0-35.264 7.296-47.552 19.84 0 0 0 0 0 0-12.352 12.352-19.648 28.864-19.648 47.36 0 18.176 7.296 35.264 19.648 47.296 0 0 0 0 0 0s0 0 0 0zM590.464 793.92c0 0 0 0 0 0 3.072-3.904 8.128-6.464 14.016-6.464 5.568 0 10.368 2.56 13.952 6.464 3.136 3.072 5.632 8.128 5.632 13.76 0 5.824-2.496 10.368-5.632 13.952-3.584 3.072-8.384 5.888-13.952 5.888-5.888 0-10.944-2.816-14.016-5.888-3.904-3.584-5.568-8.128-5.568-13.952 0-5.632 1.664-10.688 5.568-13.76 0 0 0 0 0 0zM374.976 676.352c0 0 0 0 0 0 12.288 12.032 28.8 19.904 47.552 19.904 18.496 0 34.688-7.872 47.040-19.904 0 0 0.576-0.256 0.576-0.256 11.776-11.52 19.584-28.608 19.584-47.040 0-18.24-7.808-35.328-19.584-47.616 0 0-0.576 0-0.576 0-12.352-12.608-28.544-19.584-47.040-19.584-18.752 0-35.264 6.976-47.552 19.584-12.352 12.288-19.584 29.376-19.584 47.616 0 18.432 7.232 35.52 19.584 47.040 0 0 0 0.256 0 0.256s0 0 0 0zM408 615.040c0 0 0 0 0 0 3.648-3.648 8.96-6.144 14.528-6.144 5.056 0 10.368 2.496 13.44 6.144 0 0 0.576 0 0.576 0 3.072 3.648 5.568 8.128 5.568 14.016 0 5.568-2.496 10.304-5.568 13.696 0 0-0.576 0-0.576 0-3.072 3.648-8.384 5.888-13.44 5.888-5.568 0-10.88-2.24-14.528-5.888-3.392-3.392-5.632-8.128-5.632-13.696 0-5.888 2.24-10.368 5.632-14.016 0 0 0 0 0 0z"
				],
				"attrs": [
					{}
				],
				"isMulticolor": false,
				"width": 1088,
				"grid": 0,
				"tags": [
					"sp-calendar-i"
				]
			},
			"attrs": [
				{}
			],
			"properties": {
				"order": 13,
				"id": 12,
				"prevSize": 20,
				"code": 59657,
				"name": "sp-calendar-i"
			},
			"setIdx": 6,
			"iconIdx": 0
		},
		{
			"icon": {
				"paths": [
					"M45.824 770.304c-79.275-140.715-46.848-350.549 36.864-481.024 11.691-18.773 36.267-23.979 54.187-11.435 8.277 6.144 13.909 14.933 16.128 24.32 0 0 0.597 0 0.597 0 1.621 8.277 3.328 14.677 4.693 21.163 8.704-29.611 20.395-58.624 34.901-86.187 45.227-82.688 117.76-151.296 195.413-182.955 20.651-8.192 42.923 2.389 50.517 23.467 4.181 10.837 3.072 22.272-0.597 31.659-7.509 18.773-14.251 36.949-20.053 55.125 57.771-55.125 130.816-103.168 205.653-132.779 155.221-61.269 331.605-43.093 398.251 142.165 7.851 21.419-2.475 45.141-22.613 53.333 0 0-4.181 1.195-4.181 1.195-131.413 36.352-180.821 126.635-227.157 211.883-64.512 119.040-124.757 230.059-340.224 226.56 14.507 6.741 33.536 14.421 57.515 22.272 20.907 6.741 32.341 29.952 26.197 51.627-3.328 10.837-10.837 19.371-19.797 24.576-99.072 58.624-272.64 100.267-384.341 54.272-15.872 23.467-39.595 74.752-23.125 154.709 0 0 0 0 0 0s108.544 0 108.544 0c13.141 0 23.467 10.837 23.467 24.917 0 13.483-10.325 24.661-23.467 24.661 0 0-116.651 0-116.651 0s-22.869 0-22.869 0c0 0-3.328 0-3.328 0-19.541 2.048-38.315-11.691-42.411-32.597-21.845-107.52 12.203-182.869 37.888-220.928 0 0 0 0 0 0zM333.568 1023.829c0 0 0 0 0 0s408.917 0 408.917 0c13.141 0 23.979-11.179 23.979-24.661 0-14.080-10.837-24.917-23.979-24.917 0 0-408.917 0-408.917 0-13.056 0-23.723 10.837-23.723 24.917 0 13.483 10.667 24.661 23.723 24.661 0 0 0 0 0 0zM112.299 726.613c0 0 0 0 0 0 50.773 58.027 200.875 19.371 262.315 0.597-33.451-22.272-51.883-45.483-61.696-65.109-13.909-29.269-21.76-91.989 33.536-84.395 239.189 32.853 294.4-68.608 353.621-178.176 49.664-90.283 100.693-185.003 231.083-236.288-124.501-214.187-482.816 27.563-545.365 175.275-5.035 16.469-20.139 28.16-37.376 28.16-21.504 0-39.083-18.517-39.083-41.045 0 0 2.475-59.819 20.651-137.131-26.283 25.173-50.261 55.637-68.096 89.344-32.939 59.563-47.445 128.427-31.232 189.952 4.437 16.725-1.707 35.413-16.213 45.397-17.92 12.373-42.411 7.083-54.187-11.691-17.323-28.16-36.779-55.125-51.883-84.395-33.451 94.037-45.739 219.221 3.925 309.504 0 0 0 0 0 0z"
				],
				"attrs": [
					{}
				],
				"isMulticolor": false,
				"grid": 0,
				"tags": [
					"sp-sign-in-i"
				]
			},
			"attrs": [
				{}
			],
			"properties": {
				"order": 12,
				"id": 11,
				"prevSize": 20,
				"code": 59658,
				"name": "sp-sign-in-i"
			},
			"setIdx": 6,
			"iconIdx": 1
		},
		{
			"icon": {
				"paths": [
					"M123.611 569.051c-103.205 89.746-122.295 266.313-124.489 369.664 100.864 98.011 743.278 92.672 876.471 0 12.8-117.76-39.131-298.277-120.393-374.857-31.378 0-60.635 0.146-88.21 0.219-23.918 1.829-44.032-0.219-59.392-7.753-17.262-18.139-28.233-48.201-35.035-85.504 21.797-24.576 39.205-54.93 49.518-88.795 13.166-7.168 22.967-19.31 29.623-35.547 7.095-17.627 10.459-40.667 9.947-67.877 0 0-0.146-8.777-0.146-8.777s-7.314-4.901-7.314-4.901c-2.706-1.975-5.632-3.584-8.338-5.12 14.482-106.496-5.12-177.664-59.831-217.673-80.75-58.807-231.863-58.441-311.515 6.656-51.127 41.838-64.805 96.183-48.64 213.358-1.317 0.951-2.706 1.829-4.169 2.779 0 0-7.314 4.901-7.314 4.901s0 8.777 0 8.777c-0.512 27.721 2.853 51.054 10.313 68.901 6.949 16.384 17.115 28.379 30.72 35.328 11.191 36.206 30.427 68.315 54.565 93.769-5.851 28.745-14.117 53.029-26.258 70.071-15.141 17.993-37.23 24.722-65.024 22.162-29.623 0.146-61.001 0.219-95.086 0.219z"
				],
				"attrs": [
					{}
				],
				"isMulticolor": false,
				"width": 878,
				"grid": 0,
				"tags": [
					"sp-people-i"
				]
			},
			"attrs": [
				{}
			],
			"properties": {
				"order": 11,
				"id": 10,
				"prevSize": 20,
				"code": 59659,
				"name": "sp-people-i"
			},
			"setIdx": 6,
			"iconIdx": 2
		},
		{
			"icon": {
				"paths": [
					"M1021.909 928.085c0 0-93.824 93.781-93.824 93.781s-417.408-417.408-417.408-417.408c0 0-417.451 417.408-417.451 417.408s-93.781-93.781-93.781-93.781c0 0 417.408-417.451 417.408-417.451s-417.408-417.408-417.408-417.408c0 0 93.781-93.781 93.781-93.781s417.451 417.408 417.451 417.408c0 0 417.408-417.408 417.408-417.408s93.824 93.781 93.824 93.781c0 0-417.451 417.408-417.451 417.408s417.451 417.451 417.451 417.451z"
				],
				"attrs": [
					{}
				],
				"isMulticolor": false,
				"grid": 0,
				"tags": [
					"sp-close-i"
				]
			},
			"attrs": [
				{}
			],
			"properties": {
				"order": 10,
				"id": 9,
				"prevSize": 20,
				"code": 59660,
				"name": "sp-close-i"
			},
			"setIdx": 6,
			"iconIdx": 3
		},
		{
			"icon": {
				"paths": [
					"M1131.897 120.724c-41.661 20.534-86.393 34.439-133.389 40.691 47.966-32.013 84.776-82.675 102.131-143.037-44.894 29.642-94.585 51.146-147.456 62.733-42.361-50.23-102.723-81.651-169.499-81.651-128.216 0-232.179 115.766-232.179 258.533 0 20.318 2.048 40.044 6.036 58.961-192.997-10.779-364.059-113.718-478.585-270.174-19.995 38.211-31.421 82.621-31.421 129.994 0 89.735 40.96 168.852 103.262 215.256-38.050-1.347-73.836-13.043-105.149-32.337 0 1.024 0 2.102 0 3.234 0 125.305 80.034 229.753 186.206 253.521-19.456 5.928-39.99 9.108-61.171 9.108-14.929 0-29.48-1.617-43.655-4.635 29.534 102.669 115.281 177.475 216.872 179.523-79.441 69.363-179.577 110.7-288.337 110.7-18.755 0-37.241-1.186-55.404-3.611 102.777 73.351 224.795 116.197 355.921 116.197 427.062 0 660.642-394.024 660.642-735.717 0-11.21-0.269-22.366-0.701-33.469 45.379-36.433 84.723-81.974 115.874-133.821 0 0 0 0 0 0z"
				],
				"attrs": [
					{}
				],
				"isMulticolor": false,
				"width": 1132,
				"grid": 0,
				"tags": [
					"sp-tw-i"
				]
			},
			"attrs": [
				{}
			],
			"properties": {
				"order": 3,
				"id": 7,
				"prevSize": 20,
				"code": 59661,
				"name": "sp-tw-i"
			},
			"setIdx": 6,
			"iconIdx": 5
		},
		{
			"icon": {
				"paths": [
					"M336.618 1024.117c0 0-276.86-512.102-276.86-512.102s276.86-512.132 276.86-512.132c0 0-59.889 0-59.889 0s-276.89 512.132-276.89 512.132c0 0 276.89 512.102 276.89 512.102s59.889 0 59.889 0z"
				],
				"attrs": [
					{}
				],
				"isMulticolor": false,
				"width": 336,
				"grid": 0,
				"tags": [
					"sp-left-i"
				]
			},
			"attrs": [
				{}
			],
			"properties": {
				"order": 4,
				"id": 6,
				"prevSize": 20,
				"code": 59662,
				"name": "sp-left-i"
			},
			"setIdx": 6,
			"iconIdx": 6
		},
		{
			"icon": {
				"paths": [
					"M131.43-0.051c0 0 761.139 0 761.139 0 72.294 0 131.43 59.136 131.43 131.43 0 0 0 761.139 0 761.139 0 72.294-59.136 131.43-131.43 131.43 0 0-761.139 0-761.139 0-72.294 0-131.43-59.136-131.43-131.43 0 0 0-761.139 0-761.139 0-72.294 59.136-131.43 131.43-131.43 0 0 0 0 0 0zM745.933 113.715c0 0 0 0 0 0-25.344 0-46.080 20.736-46.080 46.080 0 0 0 110.336 0 110.336 0 25.395 20.736 46.131 46.080 46.131 0 0 115.763 0 115.763 0 25.344 0 46.080-20.736 46.080-46.131 0 0 0-110.336 0-110.336 0-25.344-20.736-46.080-46.080-46.080 0 0-115.763 0-115.763 0s0 0 0 0zM908.237 432.998c0 0 0 0 0 0s-90.112 0-90.112 0c8.55 27.853 13.107 57.293 13.107 87.859 0 170.291-142.49 308.378-318.259 308.378-175.821 0-318.31-138.086-318.31-308.378 0-30.566 4.608-60.006 13.158-87.859 0 0-94.054 0-94.054 0s0 432.538 0 432.538c0 22.374 18.33 40.704 40.704 40.704 0 0 713.062 0 713.062 0 22.426 0 40.704-18.33 40.704-40.704 0 0 0-432.538 0-432.538s0 0 0 0zM512.973 310.426c0 0 0 0 0 0-113.613 0-205.67 89.242-205.67 199.27 0 110.080 92.058 199.27 205.67 199.27 113.562 0 205.67-89.19 205.67-199.27 0-110.029-92.109-199.27-205.67-199.27 0 0 0 0 0 0z"
				],
				"attrs": [
					{}
				],
				"isMulticolor": false,
				"grid": 0,
				"tags": [
					"sp-inst-i"
				]
			},
			"attrs": [
				{}
			],
			"properties": {
				"order": 5,
				"id": 5,
				"prevSize": 20,
				"code": 59663,
				"name": "sp-inst-i"
			},
			"setIdx": 6,
			"iconIdx": 7
		},
		{
			"icon": {
				"paths": [
					"M319.38-0.701c-32.822 0-64.35 3.88-101.107 18.163-74.914 29.858-112.963 99.975-112.963 209.004 0 0 0 106.442 0 106.442s-105.095 0-105.095 0c0 0 0 177.799 0 177.799s105.095 0 105.095 0c0 0 0 512.701 0 512.701s214.070 0 214.070 0c0 0 0-512.701 0-512.701s145.785 0 145.785 0c0 0 19.725-177.799 19.725-177.799s-165.511 0-165.511 0c0 0 0-80.519 0-80.519 0-24.63 2.641-42.792 9.216-53.194 9.162-15.576 27.594-23.336 56.482-23.336 0 0 97.172 0 97.172 0s0-176.559 0-176.559c0 0-162.87 0-162.87 0z"
				],
				"attrs": [
					{}
				],
				"isMulticolor": false,
				"width": 485,
				"grid": 0,
				"tags": [
					"sp-fb-i"
				]
			},
			"attrs": [
				{}
			],
			"properties": {
				"order": 6,
				"id": 4,
				"prevSize": 20,
				"code": 59664,
				"name": "sp-fb-i"
			},
			"setIdx": 6,
			"iconIdx": 8
		},
		{
			"icon": {
				"paths": [
					"M1019.589 335.242c0-40.172-15.124-80.66-45.607-110.828 0 0-178.491-178.412-178.491-178.412-30.484-30.799-70.656-45.844-111.143-45.844 0 0 0.315 0 0.315 0s-0.315 0-0.315 0c-39.857 0-80.345 15.045-110.513 45.844 0 0-561.782 561.231-561.782 561.231s-0.866 1.182-0.866 1.182c0 0 0 0 0 0s-0.63 0.315-0.63 0.315c0 0-0.945 0.945-0.945 0.945s0 0.551 0 0.551c0 0-0.551 0.315-0.551 0.315s-0.63 0.63-0.63 0.63c0 0 0 0 0 0s-0.63 0.63-0.63 0.63c0 0 0 0.315 0 0.315s0 0.551 0 0.551c0 0-1.182 1.182-1.182 1.182s-0.551 0.63-0.551 0.63c0 0 0 0.63 0 0.63s-0.945 0.551-0.945 0.551c0 0 0 0.315 0 0.315s-0.315 0.63-0.315 0.63c0 0-0.315 0.63-0.315 0.63s-0.315 0.551-0.315 0.551c0 0-0.551 1.26-0.551 1.26s-0.315 0.866-0.315 0.866c0 0-0.315 0-0.315 0s-0.551 1.812-0.551 1.812c0 0 0 0 0 0s0 0.63 0 0.63c0 0-0.63 0.551-0.63 0.551s0 0.315 0 0.315c0 0-0.63 2.442-0.63 2.442s0 0.63 0 0.63c0 0 0 0.236 0 0.236s-0.63 0-0.63 0c0 0 0 0.63 0 0.63s0 2.442 0 2.442c0 0 0 0.63 0 0.63s-0.551 0-0.551 0c0 0 0 0.551 0 0.551s0 0.315 0 0.315c0 0 0 0.551 0 0.551s0 1.575 0 1.575c0 0 0 0.63 0 0.63s0 344.143 0 344.143c0 22.922 18.747 42.22 42.299 42.22 0 0 342.489 0 342.489 0s1.182 0 1.182 0c0 0 0.63 0 0.63 0s0.866 0 0.866 0c0 0 0.866-0.551 0.866-0.551s0.945 0 0.945 0c0 0 1.497 0 1.497 0s0.63-0.63 0.63-0.63c0 0 1.182-0.63 1.182-0.63s1.182 0 1.182 0c0 0 3.623-0.866 3.623-0.866s1.26-0.63 1.26-0.63c0 0 0.63-0.63 0.63-0.63s1.182 0 1.182 0c0 0 0.866-0.551 0.866-0.551s0.945-0.63 0.945-0.63c0 0 0.866-0.63 0.866-0.63s0.945-0.315 0.945-0.315c0 0 1.182-0.551 1.182-0.551s0.63-0.63 0.63-0.63c0 0 1.182-0.551 1.182-0.551s0.63-0.63 0.63-0.63c0 0 0.866-1.26 0.866-1.26s1.497-0.866 1.497-0.866c0 0 0.63-0.63 0.63-0.63s1.26-0.551 1.26-0.551c0 0 562.018-562.412 562.018-562.412 30.484-30.562 45.922-70.105 45.922-110.828 0 0-0.315 0-0.315 0s0 0 0 0zM502.548 237.095c0 0 0 0 0 0s50.727 51.358 50.727 51.358c0 0-399.911 399.675-399.911 399.675s-50.727-50.727-50.727-50.727c0 0 399.911-400.305 399.911-400.305s0 0 0 0zM84.519 934.833c0 0 0 0 0 0s0-195.033 0-195.033c0 0 195.111 195.033 195.111 195.033s-195.111 0-195.111 0c0 0 0 0 0 0zM189.046 724.362c0 0 0 0 0 0s400.463-399.675 400.463-399.675c0 0 106.338 105.63 106.338 105.63s-400.542 399.675-400.542 399.675c0 0-106.26-105.63-106.26-105.63s0 0 0 0zM382.346 916.953c0 0 0 0 0 0s-50.727-50.727-50.727-50.727c0 0 400.463-399.99 400.463-399.99s50.727 51.042 50.727 51.042c0 0-400.463 399.675-400.463 399.675s0 0 0 0zM934.991 335.242c0 0 0 0 0 0s0 0 0 0c0 18.983-7.247 36.785-21.11 50.727 0 0-70.656 71.207-70.656 71.207s-280.576-280.182-280.576-280.182c0 0 32.295-31.98 32.295-31.98s38.676-38.912 38.676-38.912c14.178-13.942 32.61-21.11 50.727-21.11 0 0 0 0.551 0 0.551 18.747 0 37.179 6.617 51.042 20.559 0 0 178.491 178.412 178.491 178.412 13.863 13.863 21.11 32.295 21.11 50.727 0 0 0 0 0 0z"
				],
				"attrs": [
					{}
				],
				"isMulticolor": false,
				"grid": 0,
				"tags": [
					"sp-pencil-i"
				]
			},
			"attrs": [
				{}
			],
			"properties": {
				"order": 7,
				"id": 3,
				"prevSize": 20,
				"code": 59665,
				"name": "sp-pencil-i"
			},
			"setIdx": 6,
			"iconIdx": 9
		},
		{
			"icon": {
				"paths": [
					"M737.226 524.504c-36.81-39.505-85.854-65.59-147.079-78.417 0 0 0-5.282 0-5.282 42.577-17.624 75.992-45.218 100.136-82.675 24.199-37.511 36.271-80.303 36.271-128.377 0-41.499-8.731-78.093-26.247-109.837-17.57-31.744-44.086-57.128-79.549-76.045-32.876-17.677-68.015-29.265-105.472-34.762-37.511-5.551-92.645-8.3-165.403-8.3 0 0-350.046 0-350.046 0s0 985.196 0 985.196c0 0 396.611 0 396.611 0 68.77 0 125.467-6.252 170.038-18.594 44.625-12.288 85.531-33.037 122.826-62.141 31.475-24.307 56.536-54.919 75.183-91.998 18.648-37.026 27.971-79.98 27.971-129.024 0-66.991-18.432-120.239-55.242-159.744zM462.363 336.249c-7.545 16.384-21.288 29.103-41.283 38.427-18.163 8.354-35.84 12.935-52.871 13.851-17.085 0.916-46.942 1.293-89.573 1.293 0 0-31.259 0-31.259 0s0-208.303 0-208.303c0 0 17.3 0 17.3 0 44.409 0 77.77 0.269 100.19 0.97 22.42 0.593 41.822 4.473 58.26 11.533 17.3 7.491 30.019 19.618 38.211 36.379 8.192 16.815 12.342 33.091 12.342 48.936 0 21.666-3.773 40.637-11.318 56.913zM520.569 743.478c-10.402 18.755-26.947 32.984-49.583 42.685-25.708 11.048-50.984 16.977-75.83 17.893-24.899 0.862-69.632 1.293-134.413 1.293 0 0-13.366 0-13.366 0s0-246.784 0-246.784c0 0 45.918 0 45.918 0 44.409 0 79.764 0.323 106.173 0.97 26.408 0.701 47.158 3.827 62.248 9.593 24.845 8.839 43.439 21.881 55.889 39.074s18.648 41.014 18.648 71.411c0 23.875-5.228 45.164-15.683 63.865z"
				],
				"attrs": [
					{}
				],
				"isMulticolor": false,
				"width": 808,
				"grid": 0,
				"tags": [
					"sp-vk-i"
				]
			},
			"attrs": [
				{}
			],
			"properties": {
				"order": 8,
				"id": 2,
				"prevSize": 20,
				"code": 59666,
				"name": "sp-vk-i"
			},
			"setIdx": 6,
			"iconIdx": 10
		},
		{
			"icon": {
				"paths": [
					"M-0.161 1024.117c0 0 276.86-512.102 276.86-512.102s-276.86-512.132-276.86-512.132c0 0 59.889 0 59.889 0s276.89 512.132 276.89 512.132c0 0-276.89 512.102-276.89 512.102s-59.889 0-59.889 0z"
				],
				"attrs": [
					{}
				],
				"isMulticolor": false,
				"width": 336,
				"grid": 0,
				"tags": [
					"sp-right-i"
				]
			},
			"attrs": [
				{}
			],
			"properties": {
				"order": 9,
				"id": 1,
				"prevSize": 20,
				"code": 59667,
				"name": "sp-right-i"
			},
			"setIdx": 6,
			"iconIdx": 11
		},
		{
			"icon": {
				"paths": [
					"M33.587 0.154c0 0 0.973 0 0.973 0s544.768 0 544.768 0c19.098 0 34.509 16.077 34.509 34.867 0 0 0 0.717 0 0.717s0 938.291 0 938.291c0 18.842-15.411 34.662-34.509 34.662 0 0-0.717 0-0.717 0s-545.024 0-545.024 0c-19.354 0-34.253-15.821-34.253-34.662 0 0 0-0.973 0-0.973s0-938.035 0-938.035c0-18.79 14.899-34.867 34.253-34.867 0 0 0 0 0 0zM420.966 572.877c0 0 0 0 0 0s129.126 0 129.126 0c11.725 0 20.787-9.421 20.787-21.299 0-11.418-9.062-20.531-20.787-20.531 0 0-129.126 0-129.126 0-11.264 0-20.582 9.114-20.582 20.531 0 11.878 9.318 21.299 20.582 21.299 0 0 0 0 0 0zM544.819 70.144c0 0 0 0 0 0s-476.723 0-476.723 0c0 0 0 868.813 0 868.813s476.723 0 476.723 0c0 0 0-868.813 0-868.813s0 0 0 0z"
				],
				"attrs": [
					{}
				],
				"isMulticolor": false,
				"width": 614,
				"grid": 0,
				"tags": [
					"sp-logout-i"
				]
			},
			"attrs": [
				{}
			],
			"properties": {
				"order": 2,
				"id": 0,
				"prevSize": 20,
				"code": 59668,
				"name": "sp-logout-i"
			},
			"setIdx": 6,
			"iconIdx": 12
		},
		{
			"icon": {
				"paths": [
					"M576.366 523.654c-13.897-27.989-52.419-51.249-103.57-10.874-69.144 54.662-180.224 54.662-180.224 54.662s-111.080 0-180.224-54.662c-51.2-40.375-89.673-17.115-103.57 10.874-24.235 48.811 3.17 72.411 64.951 112.152 52.76 33.987 125.269 46.665 172.081 51.395 0 0-39.058 39.205-39.058 39.205-55.101 55.198-108.203 108.446-145.115 145.408-22.040 22.138-22.040 57.978 0 80.067 0 0 6.68 6.68 6.68 6.68 10.971 11.020 25.405 16.53 39.79 16.53 0 0 0.244 0 0.244 0 14.385 0 28.818-5.51 39.79-16.53 0 0 145.067-145.457 145.067-145.457 55.052 55.198 108.203 108.446 145.067 145.457 22.040 22.089 57.832 22.089 79.872 0 0 0 6.632-6.68 6.632-6.68 22.040-22.089 22.040-57.929 0-80.067 0 0-145.067-145.408-145.067-145.408s-39.205-39.302-39.205-39.302c46.86-4.876 118.589-17.603 170.91-51.298 61.781-39.741 89.186-63.342 64.951-112.152 0 0 0 0 0 0zM292.571 125.318c66.901 0 121.125 54.37 121.125 121.417s-54.223 121.417-121.125 121.417c-66.901 0-121.125-54.37-121.125-121.417s54.223-121.417 121.125-121.417c0 0 0 0 0 0zM292.571 493.568c135.948 0 246.199-110.543 246.199-246.833s-110.251-246.833-246.199-246.833c-135.997 0-246.199 110.543-246.199 246.833s110.202 246.833 246.199 246.833c0 0 0 0 0 0z"
				],
				"attrs": [
					{}
				],
				"isMulticolor": false,
				"width": 585,
				"grid": 0,
				"tags": [
					"sp-okl-i 2"
				]
			},
			"attrs": [
				{}
			],
			"properties": {
				"order": 1,
				"id": 3,
				"prevSize": 20,
				"code": 59669,
				"name": "sp-okl-i2"
			},
			"setIdx": 7,
			"iconIdx": 10
		},
		{
			"icon": {
				"paths": [
					"M596 322.857q0-57.143-37.143-92.571t-97.714-35.429h-182.857v256h182.857q60.571 0 97.714-35.429t37.143-92.571zM731.429 322.857q0 110.286-72.286 180t-186.571 69.714h-194.286v67.429h288.571q8 0 13.143 5.143t5.143 13.143v73.143q0 8-5.143 13.143t-13.143 5.143h-288.571v109.714q0 8-5.429 13.143t-12.857 5.143h-95.429q-8 0-13.143-5.143t-5.143-13.143v-109.714h-128q-8 0-13.143-5.143t-5.143-13.143v-73.143q0-8 5.143-13.143t13.143-5.143h128v-67.429h-128q-8 0-13.143-5.143t-5.143-13.143v-85.143q0-7.429 5.143-12.857t13.143-5.429h128v-359.429q0-8 5.143-13.143t13.143-5.143h308q114.286 0 186.571 69.714t72.286 180z"
				],
				"width": 731,
				"attrs": [],
				"isMulticolor": false,
				"tags": [
					"rouble",
					"rub",
					"ruble"
				],
				"defaultCode": 61784,
				"grid": 14
			},
			"attrs": [],
			"properties": {
				"id": 309,
				"order": 14,
				"prevSize": 28,
				"code": 59670,
				"name": "rouble"
			},
			"setIdx": 4,
			"iconIdx": 309
		}
	],
	"height": 1024,
	"metadata": {
		"name": "sp-font"
	},
	"preferences": {
		"showGlyphs": true,
		"showQuickUse": true,
		"showQuickUse2": true,
		"showSVGs": true,
		"fontPref": {
			"prefix": "icon-",
			"metadata": {
				"fontFamily": "sp-font",
				"majorVersion": 1,
				"minorVersion": 1
			},
			"metrics": {
				"emSize": 1024,
				"baseline": 6.25,
				"whitespace": 50
			},
			"includeMetadata": false,
			"embed": false,
			"resetPoint": 59648,
			"ie7": false,
			"showSelector": false,
			"showMetrics": false,
			"showMetadata": false,
			"showVersion": false
		},
		"imagePref": {
			"prefix": "icon-",
			"png": true,
			"useClassSelector": true,
			"color": 4473924,
			"bgColor": 16777215
		},
		"historySize": 100,
		"showCodes": true,
		"showLiga": false
	}
}