{
  "publicPath": "/js/mobile/builds/",
  "all": [
    "client.js",
    "manifest.js"
  ],
  "initial": [
    "manifest.js",
    "client.js"
  ],
  "async": [],
  "modules": {
    "31825152": [
      0
    ],
    "46820825": [
      0
    ],
    "68859336": [
      0
    ],
    "69874137": [
      0
    ],
    "74451324": [
      0
    ],
    "efcd6d5a": [
      0
    ],
    "4ac49770": [
      0
    ],
    "31f1dc5c": [
      0
    ],
    "8c14fe64": [
      0
    ],
    "211a025e": [
      0
    ],
    "242fed1e": [
      0
    ],
    "87f9a9c6": [
      0
    ],
    "195e9643": [
      0
    ],
    "3f76890e": [
      0
    ],
    "06f46603": [
      0
    ],
    "36f84562": [
      0
    ],
    "3e0cf428": [
      0
    ],
    "4a3495db": [
      0
    ],
    "91eeb20a": [
      0
    ],
    "16f43ec8": [
      0
    ],
    "01a8e9ba": [
      0
    ],
    "010ba154": [
      0
    ],
    "72104b10": [
      0
    ],
    "c087344a": [
      0
    ],
    "67ef1734": [
      0
    ],
    "77b81836": [
      0
    ],
    "456e3f77": [
      0
    ],
    "e41717e6": [
      0
    ],
    "d4729d7c": [
      0
    ],
    "26a3d393": [
      0
    ],
    "8a320c10": [
      0
    ],
    "4b43e5ec": [
      0
    ],
    "1d8d508d": [
      0
    ],
    "9b13da0a": [
      0
    ],
    "7b444d34": [
      0
    ],
    "4342390a": [
      0
    ],
    "683f7078": [
      0
    ],
    "fb6dcccc": [
      0
    ],
    "4695c8f8": [
      0
    ],
    "476e5c0c": [
      0
    ],
    "449108cc": [
      0
    ],
    "6b9f2ee5": [
      0
    ],
    "c3f24e36": [
      0
    ],
    "ea5ee8c8": [
      0
    ],
    "34c22af0": [
      0
    ],
    "2ef9d0ec": [
      0
    ],
    "a525f7aa": [
      0
    ],
    "7f27563a": [
      0
    ],
    "89bc696c": [
      0
    ],
    "0ff265da": [
      0
    ],
    "b0ef37a4": [
      0
    ],
    "1069a374": [
      0
    ],
    "4b2e5d7a": [
      0
    ],
    "dd5e4c16": [
      0
    ],
    "11b5398a": [
      0
    ],
    "6e14d8cd": [
      0
    ],
    "4b4482e5": [
      0
    ],
    "09a97fd3": [
      0
    ],
    "469a54ae": [
      0
    ],
    "60d0a469": [
      0
    ],
    "310124dc": [
      0
    ],
    "43b6b863": [
      0
    ],
    "abffbf3a": [
      0
    ],
    "07606554": [
      0
    ],
    "527dfa2c": [
      0
    ],
    "1f8dbc24": [
      0
    ],
    "597319e4": [
      0
    ],
    "1d1a4046": [
      0
    ],
    "642f8c15": [
      0
    ],
    "5f0f0bde": [
      0
    ],
    "1838a066": [
      0
    ],
    "fd9c120c": [
      0
    ],
    "6a2102a0": [
      0
    ],
    "0c988cb0": [
      0
    ],
    "b490e682": [
      0
    ],
    "579823fc": [
      0
    ],
    "0f6b2acc": [
      0
    ],
    "646a90cc": [
      0
    ],
    "6353916d": [
      0
    ],
    "ed95cce0": [
      0
    ],
    "1134c6c6": [
      0
    ],
    "41a58464": [
      0
    ],
    "c9f44ed0": [
      0
    ],
    "636a4548": [
      0
    ],
    "71af21b2": [
      0
    ],
    "4815d07a": [
      0
    ],
    "ac1d8880": [
      0
    ],
    "f0ea8aae": [
      0
    ],
    "2ea0b757": [
      0
    ],
    "691d23c8": [
      0
    ],
    "78ef3cbb": [
      0
    ],
    "8a63e28a": [
      0
    ],
    "72a54240": [
      0
    ],
    "122e7caf": [
      0
    ],
    "d95d0f30": [
      0
    ],
    "4286ffe9": [
      0
    ],
    "1cf29b12": [
      0
    ],
    "7a3e33c7": [
      0
    ],
    "dac650c6": [
      0
    ],
    "a26a0ada": [
      0
    ],
    "da42ca3e": [
      0
    ],
    "e47197c6": [
      0
    ],
    "27a4350e": [
      0
    ],
    "75180f69": [
      0
    ],
    "64c9f8b2": [
      0
    ],
    "55fde2f4": [
      0
    ],
    "5d1fc6f0": [
      0
    ],
    "52f3d708": [
      0
    ],
    "ad144af0": [
      0
    ],
    "12711f32": [
      0
    ],
    "7e3a06d2": [
      0
    ],
    "f8da11c6": [
      0
    ],
    "bb4dffd4": [
      0
    ],
    "3b4513d9": [
      0
    ],
    "4d8c75ca": [
      0
    ],
    "43f18428": [
      0
    ],
    "ffb7a348": [
      0
    ],
    "31e16ca8": [
      0
    ],
    "2dceef74": [
      0
    ],
    "3a8cb700": [
      0
    ],
    "1292add8": [
      0
    ],
    "46a36c1a": [
      0
    ],
    "8cc96556": [
      0
    ],
    "17af6639": [
      0
    ],
    "2b56a17d": [
      0
    ],
    "2df08b8f": [
      0
    ],
    "8e165728": [
      0
    ],
    "6a6a788e": [
      0
    ],
    "afc029e2": [
      0
    ],
    "8f1f874e": [
      0
    ],
    "5c8541d6": [
      0
    ],
    "93167b90": [
      0
    ],
    "2e1ddf13": [
      0
    ],
    "49aea1bb": [
      0
    ],
    "2eef2280": [
      0
    ],
    "c6e578a6": [
      0
    ],
    "75d5e1c0": [
      0
    ],
    "c4c49ac8": [
      0
    ],
    "0e754c2a": [
      0
    ],
    "b2e7c470": [
      0
    ],
    "0f9e2864": [
      0
    ],
    "8b7983bc": [
      0
    ],
    "154e3b8d": [
      0
    ],
    "5e3bcfc8": [
      0
    ],
    "116f8de2": [
      0
    ],
    "25d79eef": [
      0
    ],
    "f7ed0094": [
      0
    ],
    "3ad42086": [
      0
    ],
    "10aed8ae": [
      0
    ],
    "97d9c5f8": [
      0
    ],
    "7015c512": [
      0
    ],
    "9406860a": [
      0
    ],
    "38bc2645": [
      0
    ],
    "66e868cc": [
      0
    ],
    "0129b10d": [
      0
    ],
    "75973dae": [
      0
    ],
    "19bfea62": [
      0
    ],
    "1213cf45": [
      0
    ],
    "641fd83a": [
      0
    ],
    "705aef4e": [
      0
    ],
    "54f6abd6": [
      0
    ],
    "56cdd464": [
      0
    ],
    "10834b68": [
      0
    ],
    "0548ea1e": [
      0
    ],
    "49ecf62d": [
      0
    ],
    "1f5133da": [
      0
    ],
    "b449da2a": [
      0
    ],
    "6d44b1ec": [
      0
    ],
    "5b4ded62": [
      0
    ],
    "22af5d4d": [
      0
    ],
    "d6da42ac": [
      0
    ],
    "4cc66e30": [
      0
    ],
    "594a83f8": [
      0
    ],
    "1dd15896": [
      0
    ],
    "44445be4": [
      0
    ],
    "4c2406d9": [
      0
    ]
  }
}