{
	"order": {
		"date": null,
		"items": [
			{
				"id": "320b627d-6b81-4f00-880e-6c179062e268",
				"code": "12861",
				"name": "Пицца Фирменная",
				"amount": 2,
				"modifiers": [
					{
						"groupId": "0499fb16-4f59-4506-ad1e-f5235336d0ec",
						"id": "229383ed-b18b-4dca-90c7-82c8dd49889e",
						"amount": 1
					}
				]
			}
		],
		"address": {
			"city": "Ейск",
			"street": "Армавирская",
			"home": "45",
			"housing": "",
			"apartment": "",
			"entrance": "",
			"floor": "",
			"doorphone": "",
			"comment": ""
		},
		"phone": "79002507499",
		"fullSum": 500,
		"comment": "ч:1  /картой курьеру",
		"personsCount": 1,
		"paymentItems": [
			{
				"sum": 500,
				"paymentType": {
					"id": "6b7a2856-3b1b-4bd1-82f7-ec68c98190ca"
				},
				"isProcessedExternally": false
			}
		],
		"orderTypeId": "c2eade9c-a81b-458e-9430-b3db323e6e7e",
		"discountCardTypeId": "ffda0a4b-93f6-4c94-b99f-9050c6a8745a"
	},
	"customer": {
		"name": "Дивитай Дмитрий",
		"phone": "79002507499",
		"email": ""
	},
	"organization": "d6460b98-d9a4-11e3-8bac-50465d4d1d14",
	"deliveryTerminalId": "a7bb3deb-11a4-4e3c-0144-8b760962b55c"
}