<?xml version="1.0" encoding="UTF-8" standalone="no"?>
<svg width="80px" height="80px" viewBox="0 0 80 80" version="1.1" xmlns="http://www.w3.org/2000/svg" xmlns:xlink="http://www.w3.org/1999/xlink">
    <!-- Generator: Sketch 3.6.1 (26313) - http://www.bohemiancoding.com/sketch -->
    <title>Slice 1</title>
    <desc>Created with Sketch.</desc>
    <defs></defs>
    <g id="Page-1" stroke="none" stroke-width="1" fill="none" fill-rule="evenodd">
        <g id="Group-5" transform="translate(2.000000, 9.000000)">
            <path d="M56.5205484,10.0608382 C50.9168275,10.0608382 46.3733236,5.56001471 46.3519903,0 L11.5533546,0 C11.5320213,5.56001471 6.98851743,10.0608382 1.3847965,10.0608382 C0.932331384,10.0608382 0.489292624,10.0214265 0.0527034769,9.96427941 C-0.490056213,23.0504632 2.75509107,45.7151838 28.9539128,57.2564265 C55.1532306,45.7151838 58.3983779,23.0499706 57.8556182,9.96378676 C57.4180368,10.0209338 56.9740058,10.0608382 56.5205484,10.0608382 L56.5205484,10.0608382 Z" id="Stroke-3" stroke="#00A146" stroke-width="2" stroke-linecap="round"></path>
            <path d="M29,56 L29,1" id="Stroke-17" stroke="#00A146" stroke-width="2" stroke-linecap="round" stroke-linejoin="round"></path>
            <g id="Page-1-Copy-3" transform="translate(40.000000, 34.000000)">
                <g id="Group-8" transform="translate(0.170543, 5.173691)">
                    <path d="M0.480148837,0.434908824 L0.480148837,17.3627544 C0.480148837,20.2900632 5.2588155,22.6616662 11.1532651,22.6616662 C17.0472186,22.6616662 21.8243969,20.2900632 21.8243969,17.3627544 L21.8243969,0.434908824" id="Fill-5" fill="#FFFFFF"></path>
                    <path d="M0.480148837,0.434908824 L0.480148837,17.3627544 C0.480148837,20.2900632 5.2588155,22.6616662 11.1532651,22.6616662 C17.0472186,22.6616662 21.8243969,20.2900632 21.8243969,17.3627544 L21.8243969,0.434908824" id="Stroke-7" stroke="#00A146" stroke-width="2" stroke-linecap="round" stroke-linejoin="round"></path>
                </g>
                <path d="M0.650691473,16.8933213 C0.650691473,19.8191522 5.42935814,22.1932184 11.3238078,22.1932184 C17.2177612,22.1932184 21.9949395,19.8191522 21.9949395,16.8933213" id="Stroke-9" stroke="#00A146" stroke-width="2" stroke-linecap="round" stroke-linejoin="round"></path>
                <path d="M0.650691473,11.250936 C0.650691473,14.1777522 5.42935814,16.5498478 11.3238078,16.5498478 C17.2177612,16.5498478 21.9949395,14.1777522 21.9949395,11.250936" id="Stroke-11" stroke="#00A146" stroke-width="2" stroke-linecap="round" stroke-linejoin="round"></path>
                <path d="M21.995138,5.6086 C21.995138,8.53541618 17.2174636,10.9075118 11.3235101,10.9075118 C5.42906047,10.9075118 0.650889922,8.53541618 0.650889922,5.6086 C0.650889922,2.68276912 5.42906047,0.310180882 11.3235101,0.310180882 C17.2174636,0.310180882 21.995138,2.68276912 21.995138,5.6086" id="Fill-13" fill="#FFFFFF"></path>
                <path d="M21.995138,5.6086 C21.995138,8.53541618 17.2174636,10.9075118 11.3235101,10.9075118 C5.42906047,10.9075118 0.650889922,8.53541618 0.650889922,5.6086 C0.650889922,2.68276912 5.42906047,0.310180882 11.3235101,0.310180882 C17.2174636,0.310180882 21.995138,2.68276912 21.995138,5.6086 L21.995138,5.6086 Z" id="Stroke-15" stroke="#00A146" stroke-width="2" stroke-linecap="round" stroke-linejoin="round"></path>
            </g>
        </g>
    </g>
</svg>