<?xml version="1.0" encoding="utf-8"?>
<!-- Generator: Adobe Illustrator 16.0.4, SVG Export Plug-In . SVG Version: 6.00 Build 0)  -->
<!DOCTYPE svg PUBLIC "-//W3C//DTD SVG 1.1//EN" "http://www.w3.org/Graphics/SVG/1.1/DTD/svg11.dtd">
<svg version="1.1" id="darrow" xmlns="http://www.w3.org/2000/svg" xmlns:xlink="http://www.w3.org/1999/xlink" x="0px" y="0px"
	 width="159.25px" height="207.834px" viewBox="3 2.333 159.25 207.834" enable-background="new 3 2.333 159.25 207.834"
	 xml:space="preserve">
<g>
	<defs>
		<rect id="SVGID_1_" x="3.334" y="2.667" width="158.504" height="207.14"/>
	</defs>
	<clipPath id="SVGID_2_">
		<use xlink:href="#SVGID_1_"  overflow="visible"/>
	</clipPath>
	<g clip-path="url(#SVGID_2_)">
		<path fill="#F8F8F8" d="M59.36,18.765c0,0-2.967-2.059-0.967-4.642c0,0-1.834-3.917,1.083-5.167c0,0,0.084-2.75,3.084-3.583
			c3-0.834,3.833,1,3.833,1s2.667-3.81,7.167-2.78c4.5,1.03,3.916,3.863,3.916,3.863s3-1.665,5.667,0.251
			c2.667,1.916,1.833,5.166,1.833,5.166s1.672,0.583,1.503,3.416c-0.169,2.834-2.836,2.476-2.836,2.476"/>
	</g>
	<g clip-path="url(#SVGID_2_)">
		<path fill="#00A246" d="M83.937,19.531c-0.207,0-0.35-0.017-0.393-0.022c-0.411-0.055-0.699-0.433-0.644-0.843
			c0.055-0.411,0.429-0.703,0.843-0.644c0.003-0.001,0.846,0.094,1.411-0.378c0.345-0.288,0.538-0.759,0.576-1.399
			c0.13-2.177-0.971-2.65-1.018-2.669c-0.348-0.142-0.556-0.525-0.463-0.889c0.027-0.11,0.661-2.786-1.544-4.371
			c-2.254-1.619-4.84-0.218-4.866-0.204c-0.256,0.142-0.571,0.122-0.808-0.051c-0.236-0.174-0.35-0.469-0.29-0.756
			c0.013-0.076,0.326-2.14-3.349-2.98c-3.935-0.901-6.288,2.342-6.386,2.481c-0.156,0.219-0.422,0.337-0.684,0.313
			c-0.267-0.025-0.501-0.191-0.612-0.436c-0.059-0.114-0.692-1.214-2.95-0.587c-2.408,0.668-2.531,2.798-2.535,2.889
			c-0.013,0.288-0.189,0.548-0.454,0.661c-0.521,0.224-0.863,0.56-1.042,1.029c-0.411,1.073,0.109,2.624,0.344,3.131
			c0.118,0.254,0.085,0.555-0.087,0.776c-0.43,0.556-0.599,1.093-0.515,1.641c0.17,1.103,1.305,1.918,1.317,1.926
			c0.34,0.236,0.425,0.704,0.188,1.044c-0.237,0.34-0.705,0.423-1.044,0.188c-0.068-0.047-1.675-1.18-1.944-2.93
			c-0.128-0.833,0.059-1.647,0.556-2.425c-0.283-0.765-0.766-2.444-0.219-3.882c0.276-0.724,0.763-1.287,1.45-1.677
			c0.211-1.228,1.13-3.135,3.584-3.817c2.116-0.586,3.362-0.021,4.037,0.56c1.106-1.158,3.649-3.19,7.331-2.348
			c3.194,0.731,4.154,2.364,4.42,3.509c1.242-0.398,3.405-0.731,5.433,0.726c2.368,1.702,2.361,4.265,2.222,5.396
			c0.64,0.479,1.561,1.57,1.426,3.839c-0.064,1.079-0.444,1.911-1.128,2.475C85.347,19.429,84.446,19.531,83.937,19.531z"/>
	</g>
	<g clip-path="url(#SVGID_2_)">
		<path fill="#F8F8F8" d="M83.991,29.568c2.155,0,2.488-2.583,2.654-4.758c0.166-2.176-0.581-4.444-2.654-4.444"/>
	</g>
	<g clip-path="url(#SVGID_2_)">
		<path fill="#00A246" d="M83.991,30.318c-0.414,0-0.75-0.336-0.75-0.75s0.336-0.75,0.75-0.75c1.163,0,1.681-1.102,1.906-4.065
			c0.102-1.332-0.188-2.539-0.755-3.151c-0.303-0.327-0.68-0.486-1.151-0.486c-0.414,0-0.75-0.336-0.75-0.75s0.336-0.75,0.75-0.75
			c0.888,0,1.666,0.334,2.252,0.967c0.867,0.936,1.286,2.498,1.15,4.285C87.258,26.636,86.978,30.318,83.991,30.318z"/>
	</g>
	<g clip-path="url(#SVGID_2_)">
		<path fill="#F8F8F8" d="M58.998,29.568c-2.155,0-2.69-2.271-2.771-4.758c-0.081-2.488,0.699-4.444,2.771-4.444"/>
	</g>
	<g clip-path="url(#SVGID_2_)">
		<path fill="#00A246" d="M58.998,30.318c-3.342,0-3.477-4.127-3.521-5.483c-0.062-1.917,0.358-3.4,1.217-4.287
			c0.59-0.61,1.387-0.932,2.304-0.932c0.414,0,0.75,0.336,0.75,0.75s-0.336,0.75-0.75,0.75c-0.516,0-0.917,0.155-1.226,0.475
			c-0.561,0.58-0.844,1.714-0.795,3.195c0.117,3.574,1.142,4.032,2.021,4.032c0.414,0,0.75,0.336,0.75,0.75
			S59.412,30.318,58.998,30.318z"/>
	</g>
	<g clip-path="url(#SVGID_2_)">
		<rect x="63.925" y="33.381" fill="#F8F8F8" width="15.065" height="16.238"/>
	</g>
	<g clip-path="url(#SVGID_2_)">
		<path fill="#00A246" d="M78.99,50.369H63.925c-0.414,0-0.75-0.336-0.75-0.75V33.381c0-0.414,0.336-0.75,0.75-0.75H78.99
			c0.414,0,0.75,0.336,0.75,0.75v16.238C79.74,50.033,79.404,50.369,78.99,50.369z M64.675,48.869H78.24V34.131H64.675V48.869z"/>
	</g>
	<g clip-path="url(#SVGID_2_)">
		<path fill="#F8F8F8" d="M83.55,18.754c0.498,1.552,0.77,3.228,0.77,4.976c0,8.044-5.757,14.564-12.863,14.564
			c-7.104,0-12.863-6.52-12.863-14.564c0-1.776,0.281-3.479,0.795-5.053"/>
	</g>
	<g clip-path="url(#SVGID_2_)">
		<path fill="#00A246" d="M71.457,39.044c-7.506,0-13.613-6.87-13.613-15.314c0-1.816,0.28-3.594,0.832-5.286
			c0.128-0.393,0.551-0.608,0.946-0.48c0.394,0.128,0.608,0.552,0.48,0.946c-0.503,1.541-0.758,3.162-0.758,4.82
			c0,7.617,5.434,13.814,12.113,13.814s12.113-6.197,12.113-13.814c0-1.632-0.247-3.229-0.733-4.747
			c-0.127-0.394,0.09-0.816,0.484-0.943c0.393-0.128,0.817,0.09,0.943,0.485c0.535,1.666,0.806,3.417,0.806,5.205
			C85.069,32.174,78.963,39.044,71.457,39.044z"/>
	</g>
	<g clip-path="url(#SVGID_2_)">
		<path fill="#FFFFFF" d="M66.005,32.005c3.054,3.053,7.481,3.046,10.527,0"/>
	</g>
	<g clip-path="url(#SVGID_2_)">
		<path fill="#00A246" d="M71.269,35.053c-2.058,0-4.115-0.839-5.794-2.518c-0.293-0.292-0.293-0.768,0-1.061s0.768-0.293,1.061,0
			c2.744,2.743,6.725,2.743,9.466,0c0.293-0.293,0.768-0.293,1.061,0s0.293,0.768,0,1.061
			C75.384,34.214,73.326,35.053,71.269,35.053z"/>
	</g>
	<g clip-path="url(#SVGID_2_)">
		<path fill="#FFFFFF" d="M61.241,22.364c0,0,0.962-1.295,3.092-1.295c2.13,0,3.092,1.295,3.092,1.295"/>
	</g>
	<g clip-path="url(#SVGID_2_)">
		<path fill="#00A246" d="M67.426,23.114c-0.229,0-0.456-0.104-0.603-0.303c-0.026-0.034-0.795-0.992-2.49-0.992
			c-1.695,0-2.463,0.958-2.495,0.999c-0.253,0.324-0.722,0.387-1.048,0.139c-0.327-0.249-0.396-0.71-0.15-1.04
			c0.048-0.065,1.215-1.598,3.694-1.598c2.479,0,3.646,1.532,3.694,1.598c0.247,0.333,0.178,0.802-0.155,1.049
			C67.738,23.066,67.582,23.114,67.426,23.114z"/>
	</g>
	<g clip-path="url(#SVGID_2_)">
		<path fill="#FFFFFF" d="M75.575,22.364c0,0,0.962-1.295,3.092-1.295s3.093,1.295,3.093,1.295"/>
	</g>
	<g clip-path="url(#SVGID_2_)">
		<path fill="#00A246" d="M81.76,23.114c-0.229,0-0.455-0.104-0.603-0.303c-0.026-0.034-0.795-0.992-2.49-0.992
			c-1.695,0-2.463,0.958-2.495,0.999c-0.252,0.324-0.722,0.387-1.048,0.139c-0.327-0.249-0.396-0.71-0.15-1.04
			c0.048-0.065,1.215-1.598,3.694-1.598s3.646,1.532,3.694,1.598c0.247,0.333,0.178,0.802-0.154,1.049
			C82.072,23.066,81.916,23.114,81.76,23.114z"/>
	</g>
	<g clip-path="url(#SVGID_2_)">
		<path fill="#00A246" d="M72.638,30.611c-0.057,0-0.114-0.006-0.172-0.02l-4.461-1.048c-0.237-0.056-0.432-0.223-0.523-0.448
			c-0.092-0.226-0.068-0.482,0.063-0.687c0.976-1.523,3.213-5.987,1.865-8.328c-0.207-0.359-0.083-0.817,0.275-1.024
			c0.357-0.207,0.816-0.084,1.024,0.275c1.627,2.823-0.354,7.122-1.374,8.983l3.473,0.816c0.403,0.095,0.653,0.499,0.559,0.901
			C73.287,30.378,72.979,30.611,72.638,30.611z"/>
	</g>
	<g clip-path="url(#SVGID_2_)">
		<path fill="#FFFFFF" d="M61.435,15.081c0,0-1.137-0.875-0.193-2.75"/>
	</g>
	<g clip-path="url(#SVGID_2_)">
		<path fill="#00A246" d="M61.423,15.828c-0.156,0-0.312-0.049-0.446-0.153c-0.563-0.433-1.373-1.76-0.406-3.682
			c0.186-0.369,0.637-0.519,1.007-0.333c0.37,0.186,0.519,0.637,0.333,1.007c-0.625,1.241-0.069,1.774-0.003,1.831
			c0.306,0.266,0.355,0.735,0.098,1.049C61.856,15.731,61.641,15.828,61.423,15.828z"/>
	</g>
	<g clip-path="url(#SVGID_2_)">
		<path fill="#FFFFFF" d="M64.06,13.206c0,0-0.75-2.125,1-4.25"/>
	</g>
	<g clip-path="url(#SVGID_2_)">
		<path fill="#00A246" d="M64.057,13.954c-0.308,0-0.596-0.191-0.704-0.498c-0.037-0.103-0.868-2.552,1.128-4.976
			c0.264-0.321,0.736-0.366,1.056-0.103c0.32,0.264,0.366,0.736,0.103,1.056c-1.441,1.75-0.894,3.458-0.87,3.529
			c0.131,0.391-0.077,0.816-0.466,0.95C64.221,13.94,64.138,13.954,64.057,13.954z"/>
	</g>
	<g clip-path="url(#SVGID_2_)">
		<path fill="#FFFFFF" d="M62.06,9.581c0,0-0.875-1.125,1-2.5"/>
	</g>
	<g clip-path="url(#SVGID_2_)">
		<path fill="#00A246" d="M62.039,10.321c-0.216,0-0.427-0.094-0.571-0.28C61.42,9.981,61.011,9.426,61.126,8.6
			c0.106-0.762,0.607-1.477,1.49-2.124c0.333-0.244,0.804-0.173,1.048,0.162c0.245,0.334,0.172,0.803-0.162,1.048
			c-0.89,0.652-1.006,1.193-0.835,1.457c0.218,0.337,0.143,0.802-0.185,1.034C62.347,10.274,62.191,10.321,62.039,10.321z"/>
	</g>
	<g clip-path="url(#SVGID_2_)">
		<path fill="#FFFFFF" d="M66.81,12.706c0,0-0.5-4.75,4.25-6.875"/>
	</g>
	<g clip-path="url(#SVGID_2_)">
		<path fill="#00A246" d="M66.809,13.456c-0.379,0-0.705-0.286-0.745-0.671c-0.005-0.053-0.497-5.318,4.69-7.638
			c0.378-0.169,0.822,0,0.991,0.378c0.169,0.378,0,0.822-0.378,0.991c-4.205,1.881-3.815,6.07-3.81,6.112
			c0.043,0.412-0.256,0.781-0.667,0.825C66.861,13.455,66.835,13.456,66.809,13.456z"/>
	</g>
	<g clip-path="url(#SVGID_2_)">
		<path fill="#FFFFFF" d="M70.56,11.821c0,0-0.582-1.24,0.709-2.552"/>
	</g>
	<g clip-path="url(#SVGID_2_)">
		<path fill="#00A246" d="M70.551,12.564c-0.279,0-0.543-0.155-0.67-0.424c-0.033-0.07-0.785-1.731,0.853-3.396
			c0.292-0.296,0.765-0.299,1.061-0.009c0.295,0.291,0.299,0.766,0.009,1.061c-0.871,0.885-0.593,1.638-0.558,1.721
			c0.156,0.376-0.013,0.817-0.386,0.982C70.759,12.543,70.654,12.564,70.551,12.564z"/>
	</g>
	<g clip-path="url(#SVGID_2_)">
		<path fill="#FFFFFF" d="M73.185,6.939c0,0,0.375-0.983,1.875-0.733"/>
	</g>
	<g clip-path="url(#SVGID_2_)">
		<path fill="#00A246" d="M73.18,7.669c-0.096,0-0.193-0.019-0.286-0.059c-0.368-0.159-0.553-0.563-0.41-0.938
			c0.205-0.538,1.034-1.482,2.699-1.205c0.408,0.068,0.685,0.455,0.616,0.863s-0.453,0.682-0.863,0.616
			c-0.81-0.135-1.026,0.215-1.062,0.287C73.743,7.503,73.466,7.669,73.18,7.669z"/>
	</g>
	<g clip-path="url(#SVGID_2_)">
		<path fill="#FFFFFF" d="M79.56,9.196c0,0,3.5,0.385,3.75,5.885"/>
	</g>
	<g clip-path="url(#SVGID_2_)">
		<path fill="#00A246" d="M83.309,15.832c-0.398,0-0.729-0.314-0.748-0.716c-0.216-4.735-2.974-5.159-3.091-5.175
			c-0.407-0.055-0.699-0.427-0.649-0.835c0.05-0.408,0.408-0.701,0.822-0.655c0.169,0.019,4.142,0.525,4.417,6.597
			c0.019,0.414-0.301,0.765-0.715,0.783C83.332,15.832,83.32,15.832,83.309,15.832z"/>
	</g>
	<g clip-path="url(#SVGID_2_)">
		<path fill="#FFFFFF" d="M73.67,12.242c0,0-0.973-2.298,1.049-3.583"/>
	</g>
	<g clip-path="url(#SVGID_2_)">
		<path fill="#00A246" d="M73.67,12.992c-0.292,0-0.57-0.171-0.691-0.458c-0.422-0.997-0.687-3.223,1.337-4.508
			c0.351-0.223,0.814-0.119,1.035,0.23c0.222,0.35,0.119,0.813-0.23,1.035c-1.469,0.934-0.79,2.588-0.761,2.658
			c0.162,0.381-0.017,0.822-0.398,0.983C73.867,12.973,73.768,12.992,73.67,12.992z"/>
	</g>
	<g clip-path="url(#SVGID_2_)">
		<path fill="#FFFFFF" d="M75.991,10.45c0,0,3.07,0.219,4.493,3.888"/>
	</g>
	<g clip-path="url(#SVGID_2_)">
		<path fill="#00A246" d="M80.484,15.088c-0.3,0-0.584-0.182-0.699-0.479c-1.237-3.189-3.821-3.41-3.847-3.412
			c-0.414-0.029-0.725-0.388-0.695-0.801s0.396-0.719,0.801-0.695c0.145,0.01,3.562,0.3,5.139,4.365
			c0.15,0.386-0.042,0.821-0.428,0.971C80.667,15.072,80.575,15.088,80.484,15.088z"/>
	</g>
	<g clip-path="url(#SVGID_2_)">
		<path fill="#F8F8F8" d="M37.649,83.811c0,0,8.9,0.523,9.406,7.959c0.504,7.436-4.982,8.32-7.105,7.967
			c-2.124-0.354-4.953-1.002-2.124-5.603l3.652,2.934"/>
	</g>
	<g clip-path="url(#SVGID_2_)">
		<path fill="#00A246" d="M40.777,100.503c-0.363,0-0.684-0.028-0.943-0.071c-1.121-0.186-2.996-0.498-3.668-1.977
			c-0.522-1.146-0.176-2.682,1.06-4.69c0.106-0.173,0.281-0.291,0.48-0.325c0.199-0.037,0.403,0.018,0.562,0.145l3.652,2.934
			c0.304,0.244,0.352,0.688,0.108,0.991c-0.245,0.302-0.689,0.352-0.991,0.108l-3.01-2.418c-0.634,1.193-0.834,2.108-0.578,2.672
			c0.334,0.732,1.526,0.988,2.617,1.17c0.889,0.148,2.965,0.062,4.486-1.319c1.375-1.247,1.98-3.234,1.799-5.904
			c-0.457-6.72-8.406-7.282-8.744-7.303c-0.389-0.023-0.685-0.357-0.661-0.746c0.023-0.388,0.349-0.686,0.745-0.662
			c0.095,0.005,9.526,0.651,10.068,8.615c0.211,3.122-0.548,5.492-2.259,7.044C43.995,100.132,42.103,100.503,40.777,100.503z"/>
	</g>
	<g clip-path="url(#SVGID_2_)">
		<path fill="#00A246" d="M136.521,33.174l-11.5,22.574c-11.153-6.072-20.037-8.81-25.151-10.204
			c-3.093-0.843-10.959-1.938-10.959-1.938l-7.08-3.327l-10.447,4.897l-10.257-4.897l-6.931,3.185c0,0-5.033,2.233-9.94,3.25
			c-4.906,1.018-19.668,4.772-29.298,13.734C5.327,69.411,4.04,81.501,4.04,81.501l33.744,12.331L37.13,81.501
			c-1.6-1.078-6.462-4.739-11.737-8.075l19.32-9.316l4.751,36.573L28.046,198.32c0,0-3.366,0.703-8.85,4.242
			c-5.486,3.537-4.267,6.539-4.267,6.539h17.042l8.481-5.297l-0.871,5.297h7.515l24.283-95.562l23.901,95.562h7.514l-0.87-5.297
			l8.48,5.297h16.742c0,0,1.218-3.002-4.268-6.539c-5.484-3.539-8.55-4.242-8.55-4.242l-20.972-97.496l4.918-35.798
			c0,0,5.858,4.18,18.313,8.118c12.454,3.939,17.883,1.732,17.883,1.732c3.432-7.34,9.694-29.395,10.307-32.521L136.521,33.174z"/>
	</g>
	<g clip-path="url(#SVGID_2_)">
		<path fill="#00A246" d="M127.146,209.807h-16.742c-0.132,0-0.262-0.037-0.373-0.107l-7.159-4.471l0.591,3.598
			c0.036,0.086,0.056,0.178,0.056,0.275c0,0.391-0.315,0.705-0.705,0.705c-0.004,0.002-0.012,0.002-0.02,0H95.28
			c-0.323,0-0.605-0.221-0.684-0.533l-23.223-92.852l-23.595,92.854c-0.079,0.312-0.361,0.531-0.683,0.531h-7.515
			c-0.207,0-0.403-0.09-0.538-0.248c-0.134-0.158-0.191-0.367-0.158-0.57l0.618-3.76l-7.159,4.471
			c-0.112,0.07-0.242,0.107-0.374,0.107H14.929c-0.287,0-0.545-0.174-0.653-0.439c-0.059-0.145-1.371-3.586,4.538-7.398
			c4.447-2.869,7.527-3.91,8.637-4.223l21.299-97.094L44.14,65.169l-17.303,8.344c3.394,2.194,6.505,4.425,8.632,5.95
			c0.9,0.646,1.606,1.152,2.055,1.454c0.184,0.124,0.298,0.326,0.31,0.547l0.644,12.165c0.019,0.064,0.03,0.133,0.03,0.203
			c0,0.393-0.333,0.672-0.715,0.705c-0.094-0.006-0.171-0.013-0.252-0.043L3.797,82.164c-0.304-0.111-0.493-0.415-0.459-0.737
			c0.054-0.504,1.427-12.457,11.139-21.494c9.955-9.265,25.2-12.988,29.635-13.909c4.773-0.989,9.748-3.182,9.797-3.204l6.923-3.181
			c0.191-0.087,0.409-0.086,0.598,0.004l9.956,4.754l10.145-4.756c0.189-0.09,0.41-0.089,0.6,0l6.982,3.282
			c0.989,0.14,8,1.14,10.941,1.941c3.139,0.855,12.579,3.429,24.666,9.92l11.172-21.93c0.105-0.207,0.306-0.349,0.536-0.379
			c0.231-0.029,0.461,0.055,0.616,0.228l8.258,9.181c0.147,0.165,0.21,0.39,0.167,0.607c-0.634,3.237-6.861,25.202-10.359,32.684
			c-0.075,0.161-0.209,0.287-0.373,0.354c-0.067,0.027-1.683,0.668-5.049,0.668c-3.838,0-8.316-0.801-13.312-2.381
			c-9.729-3.076-15.426-6.269-17.554-7.591l-4.75,34.572l20.856,96.96c1.051,0.322,3.927,1.369,8.332,4.211
			c5.908,3.812,4.598,7.254,4.539,7.398C127.691,209.633,127.434,209.807,127.146,209.807z M110.606,208.396h15.943
			c0.018-0.867-0.407-2.891-4.053-5.242c-5.284-3.41-8.297-4.141-8.327-4.146c-0.266-0.062-0.473-0.271-0.53-0.539l-20.972-97.496
			c-0.017-0.08-0.021-0.162-0.009-0.244l4.918-35.798c0.033-0.244,0.192-0.453,0.419-0.551c0.227-0.098,0.488-0.071,0.688,0.073
			c0.058,0.042,5.938,4.169,18.117,8.02c4.857,1.537,9.193,2.315,12.887,2.315c2.336,0,3.736-0.328,4.271-0.484
			c3.295-7.251,9.145-27.678,10.055-31.743l-7.332-8.151l-11.034,21.659c-0.086,0.17-0.237,0.297-0.419,0.354
			c-0.183,0.055-0.378,0.037-0.546-0.054c-12.246-6.667-21.846-9.283-25-10.143c-3.014-0.821-10.792-1.909-10.871-1.92
			c-0.069-0.01-0.138-0.03-0.202-0.06l-6.78-3.187l-10.147,4.757c-0.191,0.09-0.413,0.088-0.603-0.002l-9.959-4.755l-6.631,3.047
			c-0.217,0.096-5.167,2.279-10.091,3.3c-4.345,0.901-19.273,4.544-28.96,13.56c-8.188,7.62-10.234,17.65-10.621,20.07l32.206,11.77
			l-0.578-10.918c-0.447-0.31-1.058-0.748-1.796-1.277c-2.335-1.674-5.863-4.203-9.632-6.586c-0.216-0.137-0.341-0.38-0.327-0.636
			c0.015-0.255,0.167-0.483,0.397-0.595l19.32-9.316c0.205-0.098,0.444-0.092,0.642,0.015c0.199,0.108,0.334,0.305,0.364,0.529
			l4.751,36.573c0.01,0.081,0.007,0.163-0.011,0.241l-21.418,97.639c-0.059,0.27-0.272,0.48-0.543,0.537
			c-0.033,0.008-3.332,0.736-8.613,4.145c-3.646,2.352-4.07,4.375-4.053,5.242h16.243l8.31-5.189
			c0.235-0.145,0.533-0.141,0.765,0.012c0.23,0.152,0.35,0.428,0.305,0.701l-0.736,4.477h6.136l24.148-95.031
			c0.079-0.312,0.361-0.531,0.683-0.531c0,0,0.001,0,0.001,0c0.323,0,0.604,0.221,0.683,0.533l23.768,95.029h6.133l-0.735-4.477
			c-0.045-0.273,0.074-0.549,0.305-0.701s0.53-0.156,0.764-0.012L110.606,208.396z"/>
	</g>
	<g clip-path="url(#SVGID_2_)">
		<rect x="125.964" y="20.457" fill="#F8F8F8" width="35.124" height="48.5"/>
	</g>
	<g clip-path="url(#SVGID_2_)">
		<path fill="#00A246" d="M161.088,69.707h-35.124c-0.414,0-0.75-0.336-0.75-0.75v-48.5c0-0.414,0.336-0.75,0.75-0.75h35.124
			c0.414,0,0.75,0.336,0.75,0.75v48.5C161.838,69.371,161.502,69.707,161.088,69.707z M126.714,68.207h33.624v-47h-33.624V68.207z"
			/>
	</g>
	<g clip-path="url(#SVGID_2_)">
		<path fill="#00A246" d="M155.5,32.452h-23.994c-0.414,0-0.75-0.336-0.75-0.75s0.336-0.75,0.75-0.75H155.5
			c0.414,0,0.75,0.336,0.75,0.75S155.914,32.452,155.5,32.452z"/>
	</g>
	<g clip-path="url(#SVGID_2_)">
		<path fill="#00A246" d="M155.5,28.087h-23.994c-0.414,0-0.75-0.336-0.75-0.75s0.336-0.75,0.75-0.75H155.5
			c0.414,0,0.75,0.336,0.75,0.75S155.914,28.087,155.5,28.087z"/>
	</g>
	<g clip-path="url(#SVGID_2_)">
		<path fill="#00A246" d="M155.5,36.815h-23.994c-0.414,0-0.75-0.336-0.75-0.75s0.336-0.75,0.75-0.75H155.5
			c0.414,0,0.75,0.336,0.75,0.75S155.914,36.815,155.5,36.815z"/>
	</g>
	<g clip-path="url(#SVGID_2_)">
		<path fill="#00A246" d="M155.304,41.18h-23.798c-0.414,0-0.75-0.336-0.75-0.75s0.336-0.75,0.75-0.75h23.798
			c0.414,0,0.75,0.336,0.75,0.75S155.718,41.18,155.304,41.18z"/>
	</g>
	<g clip-path="url(#SVGID_2_)">
		<path fill="#00A246" d="M155.304,45.544h-23.798c-0.414,0-0.75-0.336-0.75-0.75s0.336-0.75,0.75-0.75h23.798
			c0.414,0,0.75,0.336,0.75,0.75S155.718,45.544,155.304,45.544z"/>
	</g>
	<g clip-path="url(#SVGID_2_)">
		<path fill="#00A246" d="M155.304,49.908h-23.798c-0.414,0-0.75-0.336-0.75-0.75s0.336-0.75,0.75-0.75h23.798
			c0.414,0,0.75,0.336,0.75,0.75S155.718,49.908,155.304,49.908z"/>
	</g>
	<g clip-path="url(#SVGID_2_)">
		<path fill="#00A246" d="M155.304,54.272h-23.798c-0.414,0-0.75-0.336-0.75-0.75s0.336-0.75,0.75-0.75h23.798
			c0.414,0,0.75,0.336,0.75,0.75S155.718,54.272,155.304,54.272z"/>
	</g>
	<g clip-path="url(#SVGID_2_)">
		<path fill="#00A246" d="M155.304,58.636h-23.798c-0.414,0-0.75-0.336-0.75-0.75s0.336-0.75,0.75-0.75h23.798
			c0.414,0,0.75,0.336,0.75,0.75S155.718,58.636,155.304,58.636z"/>
	</g>
	<g clip-path="url(#SVGID_2_)">
		<path fill="#00A246" d="M148.442,63h-16.937c-0.414,0-0.75-0.336-0.75-0.75s0.336-0.75,0.75-0.75h16.937
			c0.414,0,0.75,0.336,0.75,0.75S148.856,63,148.442,63z"/>
	</g>
	<g clip-path="url(#SVGID_2_)">
		<polygon fill="#F8F8F8" points="157.609,77.008 154.558,74.148 151.572,77.008 152.422,65.893 156.76,65.893 		"/>
	</g>
	<g clip-path="url(#SVGID_2_)">
		<path fill="#00A246" d="M151.572,77.758c-0.108,0-0.218-0.023-0.32-0.072c-0.281-0.133-0.451-0.425-0.428-0.735l0.85-11.115
			c0.03-0.391,0.356-0.693,0.748-0.693h4.338c0.392,0,0.718,0.302,0.748,0.693l0.836,10.944c0.023,0.072,0.035,0.148,0.035,0.228
			c0,0.417-0.333,0.741-0.759,0.75c-0.187,0.008-0.379-0.067-0.523-0.203l-2.533-2.374l-2.473,2.368
			C151.948,77.686,151.762,77.758,151.572,77.758z M154.558,73.398c0.185,0,0.368,0.067,0.513,0.203l1.645,1.541l-0.65-8.498h-2.947
			l-0.647,8.467l1.569-1.503C154.184,73.467,154.371,73.398,154.558,73.398z"/>
	</g>
	<g clip-path="url(#SVGID_2_)">
		<path fill="#F8F8F8" d="M158.024,64.271c0,1.905-1.544,3.45-3.449,3.45s-3.449-1.545-3.449-3.45c0-1.905,1.544-3.45,3.449-3.45
			S158.024,62.366,158.024,64.271"/>
	</g>
	<g clip-path="url(#SVGID_2_)">
		<path fill="#00A246" d="M154.575,68.471c-2.315,0-4.199-1.884-4.199-4.2s1.884-4.2,4.199-4.2s4.199,1.884,4.199,4.2
			S156.891,68.471,154.575,68.471z M154.575,61.571c-1.488,0-2.699,1.211-2.699,2.7s1.211,2.7,2.699,2.7s2.699-1.211,2.699-2.7
			S156.063,61.571,154.575,61.571z"/>
	</g>
	<g clip-path="url(#SVGID_2_)">
		<path fill="#F8F8F8" d="M133.648,19.792c0,0,0.796-2.228,3.341-2.705c2.545-0.477,10.817-0.477,12.886,0.319
			c2.068,0.795,2.864,4.773-1.113,4.614c-3.978-0.16-4.613,1.59-6.682,1.59s-1.75-3.181-3.818-3.34
			C136.193,20.11,135.08,20.429,133.648,19.792"/>
	</g>
	<g clip-path="url(#SVGID_2_)">
		<path fill="#00A246" d="M142.08,24.36c-1.494,0-2.124-1.174-2.584-2.032c-0.472-0.878-0.736-1.268-1.292-1.311
			c-2.078-0.16-3.248,0.178-4.86-0.541c-0.358-0.159-0.533-0.568-0.401-0.938c0.038-0.107,0.975-2.64,3.909-3.19
			c1.112-0.208,3.315-0.338,5.748-0.338c1.347,0,5.87,0.05,7.545,0.694c1.442,0.555,2.425,2.302,2.145,3.815
			c-0.273,1.476-1.563,2.323-3.558,2.248c-2.155-0.095-3.191,0.41-4.178,0.888C143.838,24.003,143.099,24.36,142.08,24.36z
			 M134.735,19.36c0.919,0.191,1.944,0.036,3.584,0.163c1.433,0.11,2.049,1.258,2.499,2.097c0.473,0.882,0.72,1.241,1.262,1.241
			c0.675,0,1.155-0.232,1.82-0.554c1.04-0.502,2.353-1.136,4.892-1.036l0.198,0.004c0.745,0,1.666-0.178,1.823-1.027
			c0.149-0.805-0.438-1.846-1.208-2.142c-0.938-0.361-3.688-0.595-7.006-0.595c-2.347,0-4.443,0.12-5.473,0.312
			C135.875,18.059,135.132,18.797,134.735,19.36z"/>
	</g>
	<g clip-path="url(#SVGID_2_)">
		<path fill="#FFFFFF" d="M141.727,16.79c0,0,3.333,1.333,3.166,5.583"/>
	</g>
	<g clip-path="url(#SVGID_2_)">
		<path fill="#00A246" d="M144.894,23.123c-0.011,0-0.021,0-0.03,0c-0.414-0.016-0.736-0.365-0.72-0.779
			c0.145-3.678-2.667-4.846-2.695-4.857c-0.385-0.154-0.572-0.59-0.418-0.975c0.153-0.385,0.593-0.571,0.975-0.418
			c0.156,0.062,3.823,1.584,3.637,6.309C145.626,22.806,145.294,23.123,144.894,23.123z"/>
	</g>
	<g clip-path="url(#SVGID_2_)">
		<path fill="#FFFFFF" d="M146.477,17.04c0,0,2.333,1.75,1.917,4.25"/>
	</g>
	<g clip-path="url(#SVGID_2_)">
		<path fill="#00A246" d="M148.395,22.04c-0.041,0-0.082-0.003-0.124-0.01c-0.408-0.068-0.685-0.454-0.617-0.863
			c0.335-2.009-1.609-3.514-1.629-3.528c-0.329-0.25-0.395-0.72-0.146-1.05s0.717-0.397,1.048-0.149
			c0.11,0.083,2.691,2.057,2.207,4.973C149.072,21.78,148.755,22.04,148.395,22.04z"/>
	</g>
	<g clip-path="url(#SVGID_2_)">
		<polygon fill="#F8F8F8" points="59.429,42.933 72.096,94.02 84.121,43.359 79.996,39.366 71.457,43.77 60.621,41.145 		"/>
	</g>
	<g clip-path="url(#SVGID_2_)">
		
			<rect x="69.121" y="44.395" transform="matrix(0.7071 0.7072 -0.7072 0.7071 54.1427 -36.9098)" fill="#00A246" width="5" height="4.999"/>
	</g>
	<g clip-path="url(#SVGID_2_)">
		<polyline fill="#00A246" points="65.575,85.268 66.575,85.643 71.621,45.645 77.246,84.02 71.996,96.77 67.496,91.02 		"/>
	</g>
	<g clip-path="url(#SVGID_2_)">
		<polygon fill="#F8F8F8" points="63.234,39.667 71.622,43.358 79.56,39.366 83.621,43.358 76.997,48.77 71.747,44.067 
			66.372,48.77 59.497,42.02 		"/>
	</g>
	<g clip-path="url(#SVGID_2_)">
		<path fill="#00A246" d="M76.997,49.52c-0.179,0-0.358-0.064-0.5-0.191l-4.755-4.259l-4.875,4.265
			c-0.294,0.259-0.738,0.246-1.019-0.029l-6.875-6.75c-0.164-0.161-0.245-0.387-0.22-0.615s0.152-0.433,0.346-0.555l3.738-2.352
			c0.211-0.132,0.474-0.152,0.702-0.052L71.6,42.53l7.623-3.834c0.285-0.145,0.633-0.09,0.863,0.135l4.061,3.993
			c0.152,0.149,0.233,0.356,0.224,0.569s-0.109,0.411-0.274,0.546l-6.625,5.411C77.333,49.463,77.165,49.52,76.997,49.52z
			 M72.515,43.749l4.504,4.034l5.48-4.476l-3.082-3.03L72.515,43.749z M60.699,42.149l5.702,5.599l4.462-3.904l-7.566-3.33
			L60.699,42.149z"/>
	</g>
	<g clip-path="url(#SVGID_2_)">
		<path fill="#F8F8F8" d="M73.106,90.166c0,0.736-0.596,1.332-1.331,1.332c-0.736,0-1.333-0.596-1.333-1.332
			s0.597-1.332,1.333-1.332C72.51,88.834,73.106,89.43,73.106,90.166"/>
	</g>
	<g clip-path="url(#SVGID_2_)">
		<path fill="#F8F8F8" d="M73.106,98.102c0,0.736-0.596,1.332-1.331,1.332c-0.736,0-1.333-0.596-1.333-1.332
			s0.597-1.332,1.333-1.332C72.51,96.77,73.106,97.365,73.106,98.102"/>
	</g>
	<g clip-path="url(#SVGID_2_)">
		<path fill="#F8F8F8" d="M25.58,196.104c0,0,5,5.334,20.667,4c0,0-11.001,4.334-22.667-3"/>
	</g>
	<g clip-path="url(#SVGID_2_)">
		<path fill="#F8F8F8" d="M116.58,195.102c0,0-5.001,6.211-17.667,6.273c0,0,7.667,3.332,17.667-3.637"/>
	</g>
	<g clip-path="url(#SVGID_2_)">
		<path fill="#F8F8F8" d="M47.913,99.434c0,0,0.503,8.363,18.334,5.898c0,0-12.334,4.391-19.667-3.243"/>
	</g>
	<g clip-path="url(#SVGID_2_)">
		<path fill="#F8F8F8" d="M96.67,100.283c0,0-4.343,5.969-20.005,4.636c0,0,9.005,4.667,20.005-2.667"/>
	</g>
	<g clip-path="url(#SVGID_2_)">
		<polygon fill="#F8F8F8" points="54.246,45.645 50.996,55.27 56.414,56.52 52.996,60.52 67.746,85.02 50.496,60.27 53.246,57.886 
			48.807,56.27 		"/>
	</g>
	<g clip-path="url(#SVGID_2_)">
		<polygon fill="#F8F8F8" points="89.996,46.02 90.746,56.52 85.329,57.27 89.746,60.822 77.246,84.75 91.496,60.822 88.996,58.27 
			92.496,56.77 		"/>
	</g>
	<g clip-path="url(#SVGID_2_)">
		<path fill="#F8F8F8" d="M27.746,74.27c-4.25-1.75-9-1-9-1s3-3.5,11,1"/>
	</g>
	<g clip-path="url(#SVGID_2_)">
		<path fill="#F8F8F8" d="M37.996,80.52c0,0-3.5,1-5,5.25c0,0,3.5-4.75,7-4.25"/>
	</g>
	<g clip-path="url(#SVGID_2_)">
		<path fill="#F8F8F8" d="M90.227,151.424c0,0,6.77,1.096,11.02-1.904C101.246,149.52,98.366,155.822,90.227,151.424"/>
	</g>
	<g clip-path="url(#SVGID_2_)">
		<path fill="#F8F8F8" d="M37.246,147.27c0,0,3.426,4.037,10.926,2.787c0,0-7.292,3.9-12.176-1.037"/>
	</g>
</g>
</svg>
